%!PS-Adobe-3.0 EPSF-3.0
%%DocumentNeededResources: font Helvetica
%%+ font Helvetica-Bold
%%+ font Helvetica-Oblique
%%+ font Helvetica-BoldOblique
%%+ font Symbol
%%Title: R Graphics Output
%%Creator: R Software
%%Pages: (atend)
%%BoundingBox: 0 0 841 727
%%EndComments
%%BeginProlog
/bp  { gs sRGB gs } def
% begin .ps.prolog
/gs  { gsave } bind def
/gr  { grestore } bind def
/ep  { showpage gr gr } bind def
/m   { moveto } bind def
/l  { rlineto } bind def
/np  { newpath } bind def
/cp  { closepath } bind def
/f   { fill } bind def
/o   { stroke } bind def
/c   { newpath 0 360 arc } bind def
/r   { 4 2 roll moveto 1 copy 3 -1 roll exch 0 exch rlineto 0 rlineto -1 mul 0 exch rlineto closepath } bind def
/p1  { stroke } bind def
/p2  { gsave bg fill grestore newpath } bind def
/p3  { gsave bg fill grestore stroke } bind def
/p6  { gsave bg eofill grestore newpath } bind def
/p7  { gsave bg eofill grestore stroke } bind def
/t   { 5 -2 roll moveto gsave rotate
       1 index stringwidth pop
       mul neg 0 rmoveto show grestore } bind def
/ta  { 4 -2 roll moveto gsave rotate show } bind def
/tb  { 2 -1 roll 0 rmoveto show } bind def
/cl  { grestore gsave newpath 3 index 3 index moveto 1 index
       4 -1 roll lineto  exch 1 index lineto lineto
       closepath clip newpath } bind def
/rgb { setrgbcolor } bind def
/s   { scalefont setfont } bind def
% end   .ps.prolog
/sRGB { [ /CIEBasedABC
          << /DecodeLMN
               [ { dup 0.03928 le
                        {12.92321 div}
                        {0.055 add 1.055 div 2.4 exp }
                     ifelse
                 } bind dup dup
               ]
             /MatrixLMN [0.412457 0.212673 0.019334
                         0.357576 0.715152 0.119192
                         0.180437 0.072175 0.950301]
             /WhitePoint [0.9505 1.0 1.0890]
           >>
         ] setcolorspace } bind def
/srgb { setcolor } bind def
%%IncludeResource: font Helvetica
/Helvetica findfont
dup length dict begin
  {1 index /FID ne {def} {pop pop} ifelse} forall
  /Encoding ISOLatin1Encoding def
  currentdict
  end
/Font1 exch definefont pop
%%IncludeResource: font Helvetica-Bold
/Helvetica-Bold findfont
dup length dict begin
  {1 index /FID ne {def} {pop pop} ifelse} forall
  /Encoding ISOLatin1Encoding def
  currentdict
  end
/Font2 exch definefont pop
%%IncludeResource: font Helvetica-Oblique
/Helvetica-Oblique findfont
dup length dict begin
  {1 index /FID ne {def} {pop pop} ifelse} forall
  /Encoding ISOLatin1Encoding def
  currentdict
  end
/Font3 exch definefont pop
%%IncludeResource: font Helvetica-BoldOblique
/Helvetica-BoldOblique findfont
dup length dict begin
  {1 index /FID ne {def} {pop pop} ifelse} forall
  /Encoding ISOLatin1Encoding def
  currentdict
  end
/Font4 exch definefont pop
%%IncludeResource: font Symbol
/Symbol findfont
dup length dict begin
  {1 index /FID ne {def} {pop pop} ifelse} forall
  currentdict
  end
/Font5 exch definefont pop
%%EndProlog
%%Page: 1 1
bp
0.00 0.00 841.00 727.00 cl
0.00 0.00 841.00 727.00 cl
0.00 0.00 841.00 727.00 cl
0.00 0.00 841.00 727.00 cl
0.00 0.00 841.00 727.00 cl
0.00 0.00 841.00 727.00 cl
0.00 0.00 841.00 727.00 cl
0.00 0.00 841.00 727.00 cl
0.00 0.00 841.00 727.00 cl
0.00 0.00 841.00 727.00 cl
0.00 0.00 841.00 727.00 cl
0.00 0.00 841.00 727.00 cl
0.00 0.00 841.00 727.00 cl
0.00 0.00 841.00 727.00 cl
0.00 0.00 841.00 727.00 cl
0.00 0.00 841.00 727.00 cl
0.00 0.00 841.00 727.00 cl
0.00 0.00 841.00 727.00 cl
0.00 0.00 841.00 727.00 cl
0.00 0.00 841.00 727.00 cl
0.00 0.00 841.00 727.00 cl
0.00 0.00 841.00 727.00 cl
0.00 0.00 841.00 727.00 cl
0.00 0.00 841.00 727.00 cl
0.00 0.00 841.00 727.00 cl
0.00 0.00 841.00 727.00 cl
0.00 0.00 841.00 727.00 cl
0.00 0.00 841.00 727.00 cl
0.00 0.00 841.00 727.00 cl
0.00 0.00 841.00 727.00 cl
0.00 0.00 841.00 727.00 cl
0.00 0.00 841.00 727.00 cl
0.00 0.00 841.00 727.00 cl
/bg { 1 1 1 srgb } def
1 1 1 srgb
1.07 setlinewidth
[] 0 setdash
1 setlinecap
1 setlinejoin
10.00 setmiterlimit
-0.00 0.00 841.00 727.00 r p3
0.00 0.00 841.00 727.00 cl
59.85 491.13 149.33 700.06 cl
/bg { 0.9216 0.9216 0.9216 srgb } def
59.85 491.13 89.48 208.93 r p2
1 1 1 srgb
0.53 setlinewidth
[] 0 setdash
0 setlinecap
1 setlinejoin
10.00 setmiterlimit
np
59.85 529.66 m
89.48 0 l
o
np
59.85 590.78 m
89.48 0 l
o
np
59.85 651.90 m
89.48 0 l
o
1.07 setlinewidth
[] 0 setdash
np
59.85 499.10 m
89.48 0 l
o
np
59.85 560.22 m
89.48 0 l
o
np
59.85 621.34 m
89.48 0 l
o
np
59.85 682.47 m
89.48 0 l
o
np
84.25 491.13 m
0 208.93 l
o
np
124.93 491.13 m
0 208.93 l
o
0.2000 0.2000 0.2000 srgb
np
84.25 609.08 m
0 73.54 l
o
np
84.25 530.69 m
0 -25.02 l
o
/bg { 0.6000 0.6000 0.6000 srgb } def
1 setlinecap
np
 69.00 609.08 m
0 -78.39 l
30.51 0 l
0 78.39 l
-30.51 0 l
cp p3
2.13 setlinewidth
[] 0 setdash
0 setlinecap
np
69.00 542.65 m
30.51 0 l
o
1.07 setlinewidth
[] 0 setdash
np
124.93 682.47 m
0 5.65 l
o
np
124.93 543.11 m
0 -23.38 l
o
/bg { 0.9020 0.9020 0.9020 srgb } def
1 setlinecap
np
 109.68 682.47 m
0 -139.36 l
30.50 0 l
0 139.36 l
-30.50 0 l
cp p3
2.13 setlinewidth
[] 0 setdash
0 setlinecap
np
109.68 603.16 m
30.50 0 l
o
0.00 0.00 841.00 727.00 cl
59.85 276.71 149.33 485.65 cl
/bg { 0.9216 0.9216 0.9216 srgb } def
59.85 276.71 89.48 208.93 r p2
1 1 1 srgb
0.53 setlinewidth
[] 0 setdash
0 setlinecap
1 setlinejoin
10.00 setmiterlimit
np
59.85 315.24 m
89.48 0 l
o
np
59.85 376.37 m
89.48 0 l
o
np
59.85 437.49 m
89.48 0 l
o
1.07 setlinewidth
[] 0 setdash
np
59.85 284.68 m
89.48 0 l
o
np
59.85 345.81 m
89.48 0 l
o
np
59.85 406.93 m
89.48 0 l
o
np
59.85 468.05 m
89.48 0 l
o
np
84.25 276.71 m
0 208.94 l
o
np
124.93 276.71 m
0 208.94 l
o
0.2000 0.2000 0.2000 srgb
np
84.25 468.21 m
0 0.15 l
o
np
84.25 368.12 m
0 -66.63 l
o
/bg { 0.6000 0.6000 0.6000 srgb } def
1 setlinecap
np
 69.00 468.21 m
0 -100.09 l
30.51 0 l
0 100.09 l
-30.51 0 l
cp p3
2.13 setlinewidth
[] 0 setdash
0 setlinecap
np
69.00 443.45 m
30.51 0 l
o
1.07 setlinewidth
[] 0 setdash
np
124.93 468.36 m
0 0.30 l
o
np
124.93 365.67 m
0 -69.53 l
o
/bg { 0.9020 0.9020 0.9020 srgb } def
1 setlinecap
np
 109.68 468.36 m
0 -102.69 l
30.50 0 l
0 102.69 l
-30.50 0 l
cp p3
2.13 setlinewidth
[] 0 setdash
0 setlinecap
np
109.68 468.05 m
30.50 0 l
o
0.00 0.00 841.00 727.00 cl
59.85 62.30 149.33 271.23 cl
/bg { 0.9216 0.9216 0.9216 srgb } def
59.85 62.30 89.48 208.93 r p2
1 1 1 srgb
0.53 setlinewidth
[] 0 setdash
0 setlinecap
1 setlinejoin
10.00 setmiterlimit
np
59.85 100.83 m
89.48 0 l
o
np
59.85 161.95 m
89.48 0 l
o
np
59.85 223.08 m
89.48 0 l
o
1.07 setlinewidth
[] 0 setdash
np
59.85 70.27 m
89.48 0 l
o
np
59.85 131.39 m
89.48 0 l
o
np
59.85 192.52 m
89.48 0 l
o
np
59.85 253.64 m
89.48 0 l
o
np
84.25 62.30 m
0 208.93 l
o
np
124.93 62.30 m
0 208.93 l
o
0.2000 0.2000 0.2000 srgb
np
84.25 253.79 m
0 0.15 l
o
np
84.25 121.69 m
0 -40.57 l
o
/bg { 0.6000 0.6000 0.6000 srgb } def
1 setlinecap
np
 69.00 253.79 m
0 -132.10 l
30.51 0 l
0 132.10 l
-30.51 0 l
cp p3
2.13 setlinewidth
[] 0 setdash
0 setlinecap
np
69.00 248.67 m
30.51 0 l
o
/bg { 0.2000 0.2000 0.2000 srgb } def
0.71 setlinewidth
[] 0 setdash
1 setlinecap
124.93 153.86 1.95 c p3
124.93 127.73 1.95 c p3
124.93 144.69 1.95 c p3
124.93 130.78 1.95 c p3
124.93 179.22 1.95 c p3
124.93 254.10 1.95 c p3
124.93 254.10 1.95 c p3
124.93 117.49 1.95 c p3
124.93 98.23 1.95 c p3
124.93 127.11 1.95 c p3
124.93 135.98 1.95 c p3
1.07 setlinewidth
[] 0 setdash
0 setlinecap
np
124.93 253.79 m
0 0.15 l
o
np
124.93 253.64 m
0 0 l
o
/bg { 0.9020 0.9020 0.9020 srgb } def
1 setlinecap
np
 109.68 253.79 m
0 -0.15 l
30.50 0 l
0 0.15 l
-30.50 0 l
cp p3
2.13 setlinewidth
[] 0 setdash
0 setlinecap
np
109.68 253.79 m
30.50 0 l
o
0.00 0.00 841.00 727.00 cl
154.81 491.13 244.29 700.06 cl
/bg { 0.9216 0.9216 0.9216 srgb } def
154.81 491.13 89.48 208.93 r p2
1 1 1 srgb
0.53 setlinewidth
[] 0 setdash
0 setlinecap
1 setlinejoin
10.00 setmiterlimit
np
154.81 529.66 m
89.48 0 l
o
np
154.81 590.78 m
89.48 0 l
o
np
154.81 651.90 m
89.48 0 l
o
1.07 setlinewidth
[] 0 setdash
np
154.81 499.10 m
89.48 0 l
o
np
154.81 560.22 m
89.48 0 l
o
np
154.81 621.34 m
89.48 0 l
o
np
154.81 682.47 m
89.48 0 l
o
np
179.22 491.13 m
0 208.93 l
o
np
219.89 491.13 m
0 208.93 l
o
/bg { 0.2000 0.2000 0.2000 srgb } def
0.2000 0.2000 0.2000 srgb
0.71 setlinewidth
[] 0 setdash
1 setlinecap
179.22 682.47 1.95 c p3
179.22 682.47 1.95 c p3
179.22 608.66 1.95 c p3
1.07 setlinewidth
[] 0 setdash
0 setlinecap
np
179.22 513.00 m
0 11.31 l
o
np
179.22 504.48 m
0 -1.72 l
o
/bg { 0.6000 0.6000 0.6000 srgb } def
1 setlinecap
np
 163.96 513.00 m
0 -8.52 l
30.51 0 l
0 8.52 l
-30.51 0 l
cp p3
2.13 setlinewidth
[] 0 setdash
0 setlinecap
np
163.96 509.26 m
30.51 0 l
o
1.07 setlinewidth
[] 0 setdash
np
219.89 682.47 m
0 1.07 l
o
np
219.89 506.58 m
0 -3.82 l
o
/bg { 0.9020 0.9020 0.9020 srgb } def
1 setlinecap
np
 204.64 682.47 m
0 -175.89 l
30.50 0 l
0 175.89 l
-30.50 0 l
cp p3
2.13 setlinewidth
[] 0 setdash
0 setlinecap
np
204.64 509.33 m
30.50 0 l
o
0.00 0.00 841.00 727.00 cl
154.81 276.71 244.29 485.65 cl
/bg { 0.9216 0.9216 0.9216 srgb } def
154.81 276.71 89.48 208.93 r p2
1 1 1 srgb
0.53 setlinewidth
[] 0 setdash
0 setlinecap
1 setlinejoin
10.00 setmiterlimit
np
154.81 315.24 m
89.48 0 l
o
np
154.81 376.37 m
89.48 0 l
o
np
154.81 437.49 m
89.48 0 l
o
1.07 setlinewidth
[] 0 setdash
np
154.81 284.68 m
89.48 0 l
o
np
154.81 345.81 m
89.48 0 l
o
np
154.81 406.93 m
89.48 0 l
o
np
154.81 468.05 m
89.48 0 l
o
np
179.22 276.71 m
0 208.94 l
o
np
219.89 276.71 m
0 208.94 l
o
0.2000 0.2000 0.2000 srgb
np
179.22 468.05 m
0 0.31 l
o
np
179.22 301.95 m
0 -10.54 l
o
/bg { 0.6000 0.6000 0.6000 srgb } def
1 setlinecap
np
 163.96 468.05 m
0 -166.10 l
30.51 0 l
0 166.10 l
-30.51 0 l
cp p3
2.13 setlinewidth
[] 0 setdash
0 setlinecap
np
163.96 372.70 m
30.51 0 l
o
1.07 setlinewidth
[] 0 setdash
np
219.89 468.36 m
0 0.15 l
o
np
219.89 297.60 m
0 -7.57 l
o
/bg { 0.9020 0.9020 0.9020 srgb } def
1 setlinecap
np
 204.64 468.36 m
0 -170.76 l
30.50 0 l
0 170.76 l
-30.50 0 l
cp p3
2.13 setlinewidth
[] 0 setdash
0 setlinecap
np
204.64 311.27 m
30.50 0 l
o
0.00 0.00 841.00 727.00 cl
154.81 62.30 244.29 271.23 cl
/bg { 0.9216 0.9216 0.9216 srgb } def
154.81 62.30 89.48 208.93 r p2
1 1 1 srgb
0.53 setlinewidth
[] 0 setdash
0 setlinecap
1 setlinejoin
10.00 setmiterlimit
np
154.81 100.83 m
89.48 0 l
o
np
154.81 161.95 m
89.48 0 l
o
np
154.81 223.08 m
89.48 0 l
o
1.07 setlinewidth
[] 0 setdash
np
154.81 70.27 m
89.48 0 l
o
np
154.81 131.39 m
89.48 0 l
o
np
154.81 192.52 m
89.48 0 l
o
np
154.81 253.64 m
89.48 0 l
o
np
179.22 62.30 m
0 208.93 l
o
np
219.89 62.30 m
0 208.93 l
o
0.2000 0.2000 0.2000 srgb
np
179.22 252.19 m
0 1.75 l
o
np
179.22 78.94 m
0 -3.17 l
o
/bg { 0.6000 0.6000 0.6000 srgb } def
1 setlinecap
np
 163.96 252.19 m
0 -173.25 l
30.51 0 l
0 173.25 l
-30.51 0 l
cp p3
2.13 setlinewidth
[] 0 setdash
0 setlinecap
np
163.96 111.76 m
30.51 0 l
o
1.07 setlinewidth
[] 0 setdash
np
219.89 253.94 m
0 1.99 l
o
np
219.89 106.79 m
0 -30.41 l
o
/bg { 0.9020 0.9020 0.9020 srgb } def
1 setlinecap
np
 204.64 253.94 m
0 -147.15 l
30.50 0 l
0 147.15 l
-30.50 0 l
cp p3
2.13 setlinewidth
[] 0 setdash
0 setlinecap
np
204.64 253.79 m
30.50 0 l
o
0.00 0.00 841.00 727.00 cl
249.77 491.13 339.26 700.06 cl
/bg { 0.9216 0.9216 0.9216 srgb } def
249.77 491.13 89.48 208.93 r p2
1 1 1 srgb
0.53 setlinewidth
[] 0 setdash
0 setlinecap
1 setlinejoin
10.00 setmiterlimit
np
249.77 529.66 m
89.49 0 l
o
np
249.77 590.78 m
89.49 0 l
o
np
249.77 651.90 m
89.49 0 l
o
1.07 setlinewidth
[] 0 setdash
np
249.77 499.10 m
89.49 0 l
o
np
249.77 560.22 m
89.49 0 l
o
np
249.77 621.34 m
89.49 0 l
o
np
249.77 682.47 m
89.49 0 l
o
np
274.18 491.13 m
0 208.93 l
o
np
314.85 491.13 m
0 208.93 l
o
/bg { 0.2000 0.2000 0.2000 srgb } def
0.2000 0.2000 0.2000 srgb
0.71 setlinewidth
[] 0 setdash
1 setlinecap
274.18 682.47 1.95 c p3
274.18 682.62 1.95 c p3
1.07 setlinewidth
[] 0 setdash
0 setlinecap
np
274.18 508.88 m
0 6.41 l
o
np
274.18 502.50 m
0 -1.88 l
o
/bg { 0.6000 0.6000 0.6000 srgb } def
1 setlinecap
np
 258.92 508.88 m
0 -6.38 l
30.51 0 l
0 6.38 l
-30.51 0 l
cp p3
2.13 setlinewidth
[] 0 setdash
0 setlinecap
np
258.92 505.06 m
30.51 0 l
o
1.07 setlinewidth
[] 0 setdash
np
314.85 682.47 m
0 8.09 l
o
np
314.85 504.29 m
0 -2.44 l
o
/bg { 0.9020 0.9020 0.9020 srgb } def
1 setlinecap
np
 299.60 682.47 m
0 -178.18 l
30.50 0 l
0 178.18 l
-30.50 0 l
cp p3
2.13 setlinewidth
[] 0 setdash
0 setlinecap
np
299.60 507.96 m
30.50 0 l
o
0.00 0.00 841.00 727.00 cl
249.77 276.71 339.26 485.65 cl
/bg { 0.9216 0.9216 0.9216 srgb } def
249.77 276.71 89.48 208.93 r p2
1 1 1 srgb
0.53 setlinewidth
[] 0 setdash
0 setlinecap
1 setlinejoin
10.00 setmiterlimit
np
249.77 315.24 m
89.49 0 l
o
np
249.77 376.37 m
89.49 0 l
o
np
249.77 437.49 m
89.49 0 l
o
1.07 setlinewidth
[] 0 setdash
np
249.77 284.68 m
89.49 0 l
o
np
249.77 345.81 m
89.49 0 l
o
np
249.77 406.93 m
89.49 0 l
o
np
249.77 468.05 m
89.49 0 l
o
np
274.18 276.71 m
0 208.94 l
o
np
314.85 276.71 m
0 208.94 l
o
0.2000 0.2000 0.2000 srgb
np
274.18 468.21 m
0 0.30 l
o
np
274.18 294.77 m
0 -6.27 l
o
/bg { 0.6000 0.6000 0.6000 srgb } def
1 setlinecap
np
 258.92 468.21 m
0 -173.44 l
30.51 0 l
0 173.44 l
-30.51 0 l
cp p3
2.13 setlinewidth
[] 0 setdash
0 setlinecap
np
258.92 305.31 m
30.51 0 l
o
1.07 setlinewidth
[] 0 setdash
np
314.85 468.36 m
0 0.15 l
o
np
314.85 290.72 m
0 -2.22 l
o
/bg { 0.9020 0.9020 0.9020 srgb } def
1 setlinecap
np
 299.60 468.36 m
0 -177.64 l
30.50 0 l
0 177.64 l
-30.50 0 l
cp p3
2.13 setlinewidth
[] 0 setdash
0 setlinecap
np
299.60 300.73 m
30.50 0 l
o
0.00 0.00 841.00 727.00 cl
249.77 62.30 339.26 271.23 cl
/bg { 0.9216 0.9216 0.9216 srgb } def
249.77 62.30 89.48 208.93 r p2
1 1 1 srgb
0.53 setlinewidth
[] 0 setdash
0 setlinecap
1 setlinejoin
10.00 setmiterlimit
np
249.77 100.83 m
89.49 0 l
o
np
249.77 161.95 m
89.49 0 l
o
np
249.77 223.08 m
89.49 0 l
o
1.07 setlinewidth
[] 0 setdash
np
249.77 70.27 m
89.49 0 l
o
np
249.77 131.39 m
89.49 0 l
o
np
249.77 192.52 m
89.49 0 l
o
np
249.77 253.64 m
89.49 0 l
o
np
274.18 62.30 m
0 208.93 l
o
np
314.85 62.30 m
0 208.93 l
o
0.2000 0.2000 0.2000 srgb
np
274.18 210.85 m
0 42.94 l
o
np
274.18 75.39 m
0 -1.76 l
o
/bg { 0.6000 0.6000 0.6000 srgb } def
1 setlinecap
np
 258.92 210.85 m
0 -135.46 l
30.51 0 l
0 135.46 l
-30.51 0 l
cp p3
2.13 setlinewidth
[] 0 setdash
0 setlinecap
np
258.92 76.84 m
30.51 0 l
o
1.07 setlinewidth
[] 0 setdash
np
314.85 253.79 m
0 0.77 l
o
np
314.85 82.04 m
0 -7.64 l
o
/bg { 0.9020 0.9020 0.9020 srgb } def
1 setlinecap
np
 299.60 253.79 m
0 -171.75 l
30.50 0 l
0 171.75 l
-30.50 0 l
cp p3
2.13 setlinewidth
[] 0 setdash
0 setlinecap
np
299.60 253.79 m
30.50 0 l
o
0.00 0.00 841.00 727.00 cl
344.73 491.13 434.22 700.06 cl
/bg { 0.9216 0.9216 0.9216 srgb } def
344.73 491.13 89.48 208.93 r p2
1 1 1 srgb
0.53 setlinewidth
[] 0 setdash
0 setlinecap
1 setlinejoin
10.00 setmiterlimit
np
344.73 529.66 m
89.49 0 l
o
np
344.73 590.78 m
89.49 0 l
o
np
344.73 651.90 m
89.49 0 l
o
1.07 setlinewidth
[] 0 setdash
np
344.73 499.10 m
89.49 0 l
o
np
344.73 560.22 m
89.49 0 l
o
np
344.73 621.34 m
89.49 0 l
o
np
344.73 682.47 m
89.49 0 l
o
np
369.14 491.13 m
0 208.93 l
o
np
409.81 491.13 m
0 208.93 l
o
0.2000 0.2000 0.2000 srgb
np
369.14 682.47 m
0 0.30 l
o
np
369.14 526.68 m
0 -16.28 l
o
/bg { 0.6000 0.6000 0.6000 srgb } def
1 setlinecap
np
 353.89 682.47 m
0 -155.79 l
30.50 0 l
0 155.79 l
-30.50 0 l
cp p3
2.13 setlinewidth
[] 0 setdash
0 setlinecap
np
353.89 599.34 m
30.50 0 l
o
/bg { 0.2000 0.2000 0.2000 srgb } def
0.71 setlinewidth
[] 0 setdash
1 setlinecap
409.81 684.15 1.95 c p3
409.81 514.84 1.95 c p3
409.81 516.52 1.95 c p3
409.81 534.85 1.95 c p3
409.81 512.85 1.95 c p3
409.81 631.12 1.95 c p3
409.81 530.12 1.95 c p3
409.81 544.48 1.95 c p3
409.81 514.68 1.95 c p3
409.81 686.59 1.95 c p3
409.81 685.98 1.95 c p3
1.07 setlinewidth
[] 0 setdash
0 setlinecap
np
409.81 682.62 m
0 0.15 l
o
np
409.81 682.47 m
0 0 l
o
/bg { 0.9020 0.9020 0.9020 srgb } def
1 setlinecap
np
 394.56 682.62 m
0 -0.15 l
30.50 0 l
0 0.15 l
-30.50 0 l
cp p3
2.13 setlinewidth
[] 0 setdash
0 setlinecap
np
394.56 682.47 m
30.50 0 l
o
0.00 0.00 841.00 727.00 cl
344.73 276.71 434.22 485.65 cl
/bg { 0.9216 0.9216 0.9216 srgb } def
344.73 276.71 89.48 208.93 r p2
1 1 1 srgb
0.53 setlinewidth
[] 0 setdash
0 setlinecap
1 setlinejoin
10.00 setmiterlimit
np
344.73 315.24 m
89.49 0 l
o
np
344.73 376.37 m
89.49 0 l
o
np
344.73 437.49 m
89.49 0 l
o
1.07 setlinewidth
[] 0 setdash
np
344.73 284.68 m
89.49 0 l
o
np
344.73 345.81 m
89.49 0 l
o
np
344.73 406.93 m
89.49 0 l
o
np
344.73 468.05 m
89.49 0 l
o
np
369.14 276.71 m
0 208.94 l
o
np
409.81 276.71 m
0 208.94 l
o
0.2000 0.2000 0.2000 srgb
np
369.14 468.36 m
0 0 l
o
np
369.14 298.28 m
0 -8.86 l
o
/bg { 0.6000 0.6000 0.6000 srgb } def
1 setlinecap
np
 353.89 468.36 m
0 -170.08 l
30.50 0 l
0 170.08 l
-30.50 0 l
cp p3
2.13 setlinewidth
[] 0 setdash
0 setlinecap
np
353.89 313.72 m
30.50 0 l
o
1.07 setlinewidth
[] 0 setdash
np
409.81 468.36 m
0 0.15 l
o
np
409.81 299.81 m
0 -12.99 l
o
/bg { 0.9020 0.9020 0.9020 srgb } def
1 setlinecap
np
 394.56 468.36 m
0 -168.55 l
30.50 0 l
0 168.55 l
-30.50 0 l
cp p3
2.13 setlinewidth
[] 0 setdash
0 setlinecap
np
394.56 344.89 m
30.50 0 l
o
0.00 0.00 841.00 727.00 cl
344.73 62.30 434.22 271.23 cl
/bg { 0.9216 0.9216 0.9216 srgb } def
344.73 62.30 89.48 208.93 r p2
1 1 1 srgb
0.53 setlinewidth
[] 0 setdash
0 setlinecap
1 setlinejoin
10.00 setmiterlimit
np
344.73 100.83 m
89.49 0 l
o
np
344.73 161.95 m
89.49 0 l
o
np
344.73 223.08 m
89.49 0 l
o
1.07 setlinewidth
[] 0 setdash
np
344.73 70.27 m
89.49 0 l
o
np
344.73 131.39 m
89.49 0 l
o
np
344.73 192.52 m
89.49 0 l
o
np
344.73 253.64 m
89.49 0 l
o
np
369.14 62.30 m
0 208.93 l
o
np
409.81 62.30 m
0 208.93 l
o
0.2000 0.2000 0.2000 srgb
np
369.14 212.84 m
0 41.10 l
o
np
369.14 78.52 m
0 -3.51 l
o
/bg { 0.6000 0.6000 0.6000 srgb } def
1 setlinecap
np
 353.89 212.84 m
0 -134.32 l
30.50 0 l
0 134.32 l
-30.50 0 l
cp p3
2.13 setlinewidth
[] 0 setdash
0 setlinecap
np
353.89 80.58 m
30.50 0 l
o
1.07 setlinewidth
[] 0 setdash
np
409.81 253.79 m
0 5.50 l
o
np
409.81 84.02 m
0 -8.25 l
o
/bg { 0.9020 0.9020 0.9020 srgb } def
1 setlinecap
np
 394.56 253.79 m
0 -169.77 l
30.50 0 l
0 169.77 l
-30.50 0 l
cp p3
2.13 setlinewidth
[] 0 setdash
0 setlinecap
np
394.56 253.79 m
30.50 0 l
o
0.00 0.00 841.00 727.00 cl
439.70 491.13 529.18 700.06 cl
/bg { 0.9216 0.9216 0.9216 srgb } def
439.70 491.13 89.48 208.93 r p2
1 1 1 srgb
0.53 setlinewidth
[] 0 setdash
0 setlinecap
1 setlinejoin
10.00 setmiterlimit
np
439.70 529.66 m
89.48 0 l
o
np
439.70 590.78 m
89.48 0 l
o
np
439.70 651.90 m
89.48 0 l
o
1.07 setlinewidth
[] 0 setdash
np
439.70 499.10 m
89.48 0 l
o
np
439.70 560.22 m
89.48 0 l
o
np
439.70 621.34 m
89.48 0 l
o
np
439.70 682.47 m
89.48 0 l
o
np
464.10 491.13 m
0 208.93 l
o
np
504.77 491.13 m
0 208.93 l
o
0.2000 0.2000 0.2000 srgb
np
464.10 682.47 m
0 0.76 l
o
np
464.10 510.10 m
0 -3.36 l
o
/bg { 0.6000 0.6000 0.6000 srgb } def
1 setlinecap
np
 448.85 682.47 m
0 -172.37 l
30.50 0 l
0 172.37 l
-30.50 0 l
cp p3
2.13 setlinewidth
[] 0 setdash
0 setlinecap
np
448.85 535.46 m
30.50 0 l
o
1.07 setlinewidth
[] 0 setdash
np
504.77 682.47 m
0 4.58 l
o
np
504.77 550.59 m
0 -47.37 l
o
/bg { 0.9020 0.9020 0.9020 srgb } def
1 setlinecap
np
 489.52 682.47 m
0 -131.88 l
30.51 0 l
0 131.88 l
-30.51 0 l
cp p3
2.13 setlinewidth
[] 0 setdash
0 setlinecap
np
489.52 682.47 m
30.51 0 l
o
0.00 0.00 841.00 727.00 cl
439.70 276.71 529.18 485.65 cl
/bg { 0.9216 0.9216 0.9216 srgb } def
439.70 276.71 89.48 208.93 r p2
1 1 1 srgb
0.53 setlinewidth
[] 0 setdash
0 setlinecap
1 setlinejoin
10.00 setmiterlimit
np
439.70 315.24 m
89.48 0 l
o
np
439.70 376.37 m
89.48 0 l
o
np
439.70 437.49 m
89.48 0 l
o
1.07 setlinewidth
[] 0 setdash
np
439.70 284.68 m
89.48 0 l
o
np
439.70 345.81 m
89.48 0 l
o
np
439.70 406.93 m
89.48 0 l
o
np
439.70 468.05 m
89.48 0 l
o
np
464.10 276.71 m
0 208.94 l
o
np
504.77 276.71 m
0 208.94 l
o
0.2000 0.2000 0.2000 srgb
np
464.10 468.21 m
0 0.15 l
o
np
464.10 291.10 m
0 -2.75 l
o
/bg { 0.6000 0.6000 0.6000 srgb } def
1 setlinecap
np
 448.85 468.21 m
0 -177.11 l
30.50 0 l
0 177.11 l
-30.50 0 l
cp p3
2.13 setlinewidth
[] 0 setdash
0 setlinecap
np
448.85 294.00 m
30.50 0 l
o
1.07 setlinewidth
[] 0 setdash
np
504.77 468.36 m
0 4.12 l
o
np
504.77 293.32 m
0 -4.66 l
o
/bg { 0.9020 0.9020 0.9020 srgb } def
1 setlinecap
np
 489.52 468.36 m
0 -175.04 l
30.51 0 l
0 175.04 l
-30.51 0 l
cp p3
2.13 setlinewidth
[] 0 setdash
0 setlinecap
np
489.52 306.38 m
30.51 0 l
o
0.00 0.00 841.00 727.00 cl
439.70 62.30 529.18 271.23 cl
/bg { 0.9216 0.9216 0.9216 srgb } def
439.70 62.30 89.48 208.93 r p2
1 1 1 srgb
0.53 setlinewidth
[] 0 setdash
0 setlinecap
1 setlinejoin
10.00 setmiterlimit
np
439.70 100.83 m
89.48 0 l
o
np
439.70 161.95 m
89.48 0 l
o
np
439.70 223.08 m
89.48 0 l
o
1.07 setlinewidth
[] 0 setdash
np
439.70 70.27 m
89.48 0 l
o
np
439.70 131.39 m
89.48 0 l
o
np
439.70 192.52 m
89.48 0 l
o
np
439.70 253.64 m
89.48 0 l
o
np
464.10 62.30 m
0 208.93 l
o
np
504.77 62.30 m
0 208.93 l
o
0.2000 0.2000 0.2000 srgb
np
464.10 210.09 m
0 44.01 l
o
np
464.10 76.31 m
0 -3.29 l
o
/bg { 0.6000 0.6000 0.6000 srgb } def
1 setlinecap
np
 448.85 210.09 m
0 -133.78 l
30.50 0 l
0 133.78 l
-30.50 0 l
cp p3
2.13 setlinewidth
[] 0 setdash
0 setlinecap
np
448.85 77.45 m
30.50 0 l
o
1.07 setlinewidth
[] 0 setdash
np
504.77 253.79 m
0 3.36 l
o
np
504.77 80.51 m
0 -6.88 l
o
/bg { 0.9020 0.9020 0.9020 srgb } def
1 setlinecap
np
 489.52 253.79 m
0 -173.28 l
30.51 0 l
0 173.28 l
-30.51 0 l
cp p3
2.13 setlinewidth
[] 0 setdash
0 setlinecap
np
489.52 110.61 m
30.51 0 l
o
0.00 0.00 841.00 727.00 cl
534.66 491.13 624.14 700.06 cl
/bg { 0.9216 0.9216 0.9216 srgb } def
534.66 491.13 89.48 208.93 r p2
1 1 1 srgb
0.53 setlinewidth
[] 0 setdash
0 setlinecap
1 setlinejoin
10.00 setmiterlimit
np
534.66 529.66 m
89.48 0 l
o
np
534.66 590.78 m
89.48 0 l
o
np
534.66 651.90 m
89.48 0 l
o
1.07 setlinewidth
[] 0 setdash
np
534.66 499.10 m
89.48 0 l
o
np
534.66 560.22 m
89.48 0 l
o
np
534.66 621.34 m
89.48 0 l
o
np
534.66 682.47 m
89.48 0 l
o
np
559.06 491.13 m
0 208.93 l
o
np
599.73 491.13 m
0 208.93 l
o
/bg { 0.2000 0.2000 0.2000 srgb } def
0.2000 0.2000 0.2000 srgb
0.71 setlinewidth
[] 0 setdash
1 setlinecap
559.06 682.47 1.95 c p3
559.06 682.47 1.95 c p3
1.07 setlinewidth
[] 0 setdash
0 setlinecap
np
559.06 526.68 m
0 15.20 l
o
np
559.06 510.44 m
0 -3.86 l
o
/bg { 0.6000 0.6000 0.6000 srgb } def
1 setlinecap
np
 543.81 526.68 m
0 -16.24 l
30.50 0 l
0 16.24 l
-30.50 0 l
cp p3
2.13 setlinewidth
[] 0 setdash
0 setlinecap
np
543.81 512.54 m
30.50 0 l
o
1.07 setlinewidth
[] 0 setdash
np
599.73 603.31 m
0 79.31 l
o
np
599.73 517.59 m
0 -7.34 l
o
/bg { 0.9020 0.9020 0.9020 srgb } def
1 setlinecap
np
 584.48 603.31 m
0 -85.72 l
30.51 0 l
0 85.72 l
-30.51 0 l
cp p3
2.13 setlinewidth
[] 0 setdash
0 setlinecap
np
584.48 527.98 m
30.51 0 l
o
0.00 0.00 841.00 727.00 cl
534.66 276.71 624.14 485.65 cl
/bg { 0.9216 0.9216 0.9216 srgb } def
534.66 276.71 89.48 208.93 r p2
1 1 1 srgb
0.53 setlinewidth
[] 0 setdash
0 setlinecap
1 setlinejoin
10.00 setmiterlimit
np
534.66 315.24 m
89.48 0 l
o
np
534.66 376.37 m
89.48 0 l
o
np
534.66 437.49 m
89.48 0 l
o
1.07 setlinewidth
[] 0 setdash
np
534.66 284.68 m
89.48 0 l
o
np
534.66 345.81 m
89.48 0 l
o
np
534.66 406.93 m
89.48 0 l
o
np
534.66 468.05 m
89.48 0 l
o
np
559.06 276.71 m
0 208.94 l
o
np
599.73 276.71 m
0 208.94 l
o
0.2000 0.2000 0.2000 srgb
np
559.06 427.10 m
0 41.41 l
o
np
559.06 305.46 m
0 -6.41 l
o
/bg { 0.6000 0.6000 0.6000 srgb } def
1 setlinecap
np
 543.81 427.10 m
0 -121.64 l
30.50 0 l
0 121.64 l
-30.50 0 l
cp p3
2.13 setlinewidth
[] 0 setdash
0 setlinecap
np
543.81 310.35 m
30.50 0 l
o
1.07 setlinewidth
[] 0 setdash
np
599.73 468.28 m
0 5.43 l
o
np
599.73 306.69 m
0 -9.63 l
o
/bg { 0.9020 0.9020 0.9020 srgb } def
1 setlinecap
np
 584.48 468.28 m
0 -161.59 l
30.51 0 l
0 161.59 l
-30.51 0 l
cp p3
2.13 setlinewidth
[] 0 setdash
0 setlinecap
np
584.48 333.89 m
30.51 0 l
o
0.00 0.00 841.00 727.00 cl
534.66 62.30 624.14 271.23 cl
/bg { 0.9216 0.9216 0.9216 srgb } def
534.66 62.30 89.48 208.93 r p2
1 1 1 srgb
0.53 setlinewidth
[] 0 setdash
0 setlinecap
1 setlinejoin
10.00 setmiterlimit
np
534.66 100.83 m
89.48 0 l
o
np
534.66 161.95 m
89.48 0 l
o
np
534.66 223.08 m
89.48 0 l
o
1.07 setlinewidth
[] 0 setdash
np
534.66 70.27 m
89.48 0 l
o
np
534.66 131.39 m
89.48 0 l
o
np
534.66 192.52 m
89.48 0 l
o
np
534.66 253.64 m
89.48 0 l
o
np
559.06 62.30 m
0 208.93 l
o
np
599.73 62.30 m
0 208.93 l
o
0.2000 0.2000 0.2000 srgb
np
559.06 178.34 m
0 75.45 l
o
np
559.06 87.80 m
0 -8.06 l
o
/bg { 0.6000 0.6000 0.6000 srgb } def
1 setlinecap
np
 543.81 178.34 m
0 -90.54 l
30.50 0 l
0 90.54 l
-30.50 0 l
cp p3
2.13 setlinewidth
[] 0 setdash
0 setlinecap
np
543.81 96.63 m
30.50 0 l
o
1.07 setlinewidth
[] 0 setdash
np
599.73 253.79 m
0 3.06 l
o
np
599.73 93.95 m
0 -10.39 l
o
/bg { 0.9020 0.9020 0.9020 srgb } def
1 setlinecap
np
 584.48 253.79 m
0 -159.84 l
30.51 0 l
0 159.84 l
-30.51 0 l
cp p3
2.13 setlinewidth
[] 0 setdash
0 setlinecap
np
584.48 126.96 m
30.51 0 l
o
0.00 0.00 841.00 727.00 cl
629.62 491.13 719.10 700.06 cl
/bg { 0.9216 0.9216 0.9216 srgb } def
629.62 491.13 89.48 208.93 r p2
1 1 1 srgb
0.53 setlinewidth
[] 0 setdash
0 setlinecap
1 setlinejoin
10.00 setmiterlimit
np
629.62 529.66 m
89.48 0 l
o
np
629.62 590.78 m
89.48 0 l
o
np
629.62 651.90 m
89.48 0 l
o
1.07 setlinewidth
[] 0 setdash
np
629.62 499.10 m
89.48 0 l
o
np
629.62 560.22 m
89.48 0 l
o
np
629.62 621.34 m
89.48 0 l
o
np
629.62 682.47 m
89.48 0 l
o
np
654.02 491.13 m
0 208.93 l
o
np
694.70 491.13 m
0 208.93 l
o
/bg { 0.2000 0.2000 0.2000 srgb } def
0.2000 0.2000 0.2000 srgb
0.71 setlinewidth
[] 0 setdash
1 setlinecap
654.02 682.47 1.95 c p3
654.02 682.47 1.95 c p3
1.07 setlinewidth
[] 0 setdash
0 setlinecap
np
654.02 556.63 m
0 16.58 l
o
np
654.02 517.70 m
0 -9.74 l
o
/bg { 0.6000 0.6000 0.6000 srgb } def
1 setlinecap
np
 638.77 556.63 m
0 -38.93 l
30.51 0 l
0 38.93 l
-30.51 0 l
cp p3
2.13 setlinewidth
[] 0 setdash
0 setlinecap
np
638.77 536.08 m
30.51 0 l
o
1.07 setlinewidth
[] 0 setdash
np
694.70 682.47 m
0 0.15 l
o
np
694.70 525.23 m
0 -12.53 l
o
/bg { 0.9020 0.9020 0.9020 srgb } def
1 setlinecap
np
 679.44 682.47 m
0 -157.24 l
30.51 0 l
0 157.24 l
-30.51 0 l
cp p3
2.13 setlinewidth
[] 0 setdash
0 setlinecap
np
679.44 539.59 m
30.51 0 l
o
0.00 0.00 841.00 727.00 cl
629.62 276.71 719.10 485.65 cl
/bg { 0.9216 0.9216 0.9216 srgb } def
629.62 276.71 89.48 208.93 r p2
1 1 1 srgb
0.53 setlinewidth
[] 0 setdash
0 setlinecap
1 setlinejoin
10.00 setmiterlimit
np
629.62 315.24 m
89.48 0 l
o
np
629.62 376.37 m
89.48 0 l
o
np
629.62 437.49 m
89.48 0 l
o
1.07 setlinewidth
[] 0 setdash
np
629.62 284.68 m
89.48 0 l
o
np
629.62 345.81 m
89.48 0 l
o
np
629.62 406.93 m
89.48 0 l
o
np
629.62 468.05 m
89.48 0 l
o
np
654.02 276.71 m
0 208.94 l
o
np
694.70 276.71 m
0 208.94 l
o
/bg { 0.2000 0.2000 0.2000 srgb } def
0.2000 0.2000 0.2000 srgb
0.71 setlinewidth
[] 0 setdash
1 setlinecap
654.02 468.36 1.95 c p3
654.02 468.36 1.95 c p3
654.02 468.36 1.95 c p3
1.07 setlinewidth
[] 0 setdash
0 setlinecap
np
654.02 325.48 m
0 0 l
o
np
654.02 304.09 m
0 -7.34 l
o
/bg { 0.6000 0.6000 0.6000 srgb } def
1 setlinecap
np
 638.77 325.48 m
0 -21.39 l
30.51 0 l
0 21.39 l
-30.51 0 l
cp p3
2.13 setlinewidth
[] 0 setdash
0 setlinecap
np
638.77 310.81 m
30.51 0 l
o
1.07 setlinewidth
[] 0 setdash
np
694.70 468.28 m
0 0.23 l
o
np
694.70 318.15 m
0 -16.35 l
o
/bg { 0.9020 0.9020 0.9020 srgb } def
1 setlinecap
np
 679.44 468.28 m
0 -150.13 l
30.51 0 l
0 150.13 l
-30.51 0 l
cp p3
2.13 setlinewidth
[] 0 setdash
0 setlinecap
np
679.44 354.67 m
30.51 0 l
o
0.00 0.00 841.00 727.00 cl
629.62 62.30 719.10 271.23 cl
/bg { 0.9216 0.9216 0.9216 srgb } def
629.62 62.30 89.48 208.93 r p2
1 1 1 srgb
0.53 setlinewidth
[] 0 setdash
0 setlinecap
1 setlinejoin
10.00 setmiterlimit
np
629.62 100.83 m
89.48 0 l
o
np
629.62 161.95 m
89.48 0 l
o
np
629.62 223.08 m
89.48 0 l
o
1.07 setlinewidth
[] 0 setdash
np
629.62 70.27 m
89.48 0 l
o
np
629.62 131.39 m
89.48 0 l
o
np
629.62 192.52 m
89.48 0 l
o
np
629.62 253.64 m
89.48 0 l
o
np
654.02 62.30 m
0 208.93 l
o
np
694.70 62.30 m
0 208.93 l
o
0.2000 0.2000 0.2000 srgb
np
654.02 214.37 m
0 39.57 l
o
np
654.02 80.28 m
0 -2.37 l
o
/bg { 0.6000 0.6000 0.6000 srgb } def
1 setlinecap
np
 638.77 214.37 m
0 -134.09 l
30.51 0 l
0 134.09 l
-30.51 0 l
cp p3
2.13 setlinewidth
[] 0 setdash
0 setlinecap
np
638.77 86.47 m
30.51 0 l
o
1.07 setlinewidth
[] 0 setdash
np
694.70 253.79 m
0 2.60 l
o
np
694.70 81.42 m
0 -3.36 l
o
/bg { 0.9020 0.9020 0.9020 srgb } def
1 setlinecap
np
 679.44 253.79 m
0 -172.37 l
30.51 0 l
0 172.37 l
-30.51 0 l
cp p3
2.13 setlinewidth
[] 0 setdash
0 setlinecap
np
679.44 117.03 m
30.51 0 l
o
0.00 0.00 841.00 727.00 cl
724.58 491.13 814.06 700.06 cl
/bg { 0.9216 0.9216 0.9216 srgb } def
724.58 491.13 89.48 208.93 r p2
1 1 1 srgb
0.53 setlinewidth
[] 0 setdash
0 setlinecap
1 setlinejoin
10.00 setmiterlimit
np
724.58 529.66 m
89.48 0 l
o
np
724.58 590.78 m
89.48 0 l
o
np
724.58 651.90 m
89.48 0 l
o
1.07 setlinewidth
[] 0 setdash
np
724.58 499.10 m
89.48 0 l
o
np
724.58 560.22 m
89.48 0 l
o
np
724.58 621.34 m
89.48 0 l
o
np
724.58 682.47 m
89.48 0 l
o
np
748.98 491.13 m
0 208.93 l
o
np
789.66 491.13 m
0 208.93 l
o
/bg { 0.2000 0.2000 0.2000 srgb } def
0.2000 0.2000 0.2000 srgb
0.71 setlinewidth
[] 0 setdash
1 setlinecap
748.98 577.79 1.95 c p3
748.98 682.62 1.95 c p3
748.98 682.62 1.95 c p3
748.98 682.47 1.95 c p3
1.07 setlinewidth
[] 0 setdash
0 setlinecap
np
748.98 527.21 m
0 1.07 l
o
np
748.98 509.60 m
0 -2.86 l
o
/bg { 0.6000 0.6000 0.6000 srgb } def
1 setlinecap
np
 733.73 527.21 m
0 -17.61 l
30.51 0 l
0 17.61 l
-30.51 0 l
cp p3
2.13 setlinewidth
[] 0 setdash
0 setlinecap
np
733.73 518.58 m
30.51 0 l
o
1.07 setlinewidth
[] 0 setdash
np
789.66 682.47 m
0 0.15 l
o
np
789.66 513.92 m
0 -6.72 l
o
/bg { 0.9020 0.9020 0.9020 srgb } def
1 setlinecap
np
 774.40 682.47 m
0 -168.55 l
30.51 0 l
0 168.55 l
-30.51 0 l
cp p3
2.13 setlinewidth
[] 0 setdash
0 setlinecap
np
774.40 523.70 m
30.51 0 l
o
0.00 0.00 841.00 727.00 cl
724.58 276.71 814.06 485.65 cl
/bg { 0.9216 0.9216 0.9216 srgb } def
724.58 276.71 89.48 208.93 r p2
1 1 1 srgb
0.53 setlinewidth
[] 0 setdash
0 setlinecap
1 setlinejoin
10.00 setmiterlimit
np
724.58 315.24 m
89.48 0 l
o
np
724.58 376.37 m
89.48 0 l
o
np
724.58 437.49 m
89.48 0 l
o
1.07 setlinewidth
[] 0 setdash
np
724.58 284.68 m
89.48 0 l
o
np
724.58 345.81 m
89.48 0 l
o
np
724.58 406.93 m
89.48 0 l
o
np
724.58 468.05 m
89.48 0 l
o
np
748.98 276.71 m
0 208.94 l
o
np
789.66 276.71 m
0 208.94 l
o
0.2000 0.2000 0.2000 srgb
np
748.98 398.98 m
0 69.53 l
o
np
748.98 296.14 m
0 -3.82 l
o
/bg { 0.6000 0.6000 0.6000 srgb } def
1 setlinecap
np
 733.73 398.98 m
0 -102.84 l
30.51 0 l
0 102.84 l
-30.51 0 l
cp p3
2.13 setlinewidth
[] 0 setdash
0 setlinecap
np
733.73 305.77 m
30.51 0 l
o
1.07 setlinewidth
[] 0 setdash
np
789.66 468.36 m
0 0.15 l
o
np
789.66 304.24 m
0 -12.22 l
o
/bg { 0.9020 0.9020 0.9020 srgb } def
1 setlinecap
np
 774.40 468.36 m
0 -164.12 l
30.51 0 l
0 164.12 l
-30.51 0 l
cp p3
2.13 setlinewidth
[] 0 setdash
0 setlinecap
np
774.40 349.78 m
30.51 0 l
o
0.00 0.00 841.00 727.00 cl
724.58 62.30 814.06 271.23 cl
/bg { 0.9216 0.9216 0.9216 srgb } def
724.58 62.30 89.48 208.93 r p2
1 1 1 srgb
0.53 setlinewidth
[] 0 setdash
0 setlinecap
1 setlinejoin
10.00 setmiterlimit
np
724.58 100.83 m
89.48 0 l
o
np
724.58 161.95 m
89.48 0 l
o
np
724.58 223.08 m
89.48 0 l
o
1.07 setlinewidth
[] 0 setdash
np
724.58 70.27 m
89.48 0 l
o
np
724.58 131.39 m
89.48 0 l
o
np
724.58 192.52 m
89.48 0 l
o
np
724.58 253.64 m
89.48 0 l
o
np
748.98 62.30 m
0 208.93 l
o
np
789.66 62.30 m
0 208.93 l
o
0.2000 0.2000 0.2000 srgb
np
748.98 236.41 m
0 17.38 l
o
np
748.98 77.49 m
0 -2.64 l
o
/bg { 0.6000 0.6000 0.6000 srgb } def
1 setlinecap
np
 733.73 236.41 m
0 -158.92 l
30.51 0 l
0 158.92 l
-30.51 0 l
cp p3
2.13 setlinewidth
[] 0 setdash
0 setlinecap
np
733.73 93.73 m
30.51 0 l
o
1.07 setlinewidth
[] 0 setdash
np
789.66 253.79 m
0 1.22 l
o
np
789.66 81.12 m
0 -6.11 l
o
/bg { 0.9020 0.9020 0.9020 srgb } def
1 setlinecap
np
 774.40 253.79 m
0 -172.67 l
30.51 0 l
0 172.67 l
-30.51 0 l
cp p3
2.13 setlinewidth
[] 0 setdash
0 setlinecap
np
774.40 95.48 m
30.51 0 l
o
0.00 0.00 841.00 727.00 cl
59.85 700.06 149.33 721.52 cl
59.85 700.06 149.33 721.52 cl
/bg { 0.8510 0.8510 0.8510 srgb } def
59.85 700.06 89.48 21.46 r p2
/Font1 findfont 14 s
0.1020 0.1020 0.1020 srgb
104.59 705.76 (1) .5 0 t
59.85 700.06 149.33 721.52 cl
59.85 700.06 149.33 721.52 cl
0.00 0.00 841.00 727.00 cl
154.81 700.06 244.29 721.52 cl
154.81 700.06 244.29 721.52 cl
/bg { 0.8510 0.8510 0.8510 srgb } def
154.81 700.06 89.48 21.46 r p2
/Font1 findfont 14 s
0.1020 0.1020 0.1020 srgb
199.55 705.76 (2) .5 0 t
154.81 700.06 244.29 721.52 cl
154.81 700.06 244.29 721.52 cl
0.00 0.00 841.00 727.00 cl
249.77 700.06 339.26 721.52 cl
249.77 700.06 339.26 721.52 cl
/bg { 0.8510 0.8510 0.8510 srgb } def
249.77 700.06 89.48 21.46 r p2
/Font1 findfont 14 s
0.1020 0.1020 0.1020 srgb
294.51 705.76 (4) .5 0 t
249.77 700.06 339.26 721.52 cl
249.77 700.06 339.26 721.52 cl
0.00 0.00 841.00 727.00 cl
344.73 700.06 434.22 721.52 cl
344.73 700.06 434.22 721.52 cl
/bg { 0.8510 0.8510 0.8510 srgb } def
344.73 700.06 89.48 21.46 r p2
/Font1 findfont 14 s
0.1020 0.1020 0.1020 srgb
389.48 705.76 (5) .5 0 t
344.73 700.06 434.22 721.52 cl
344.73 700.06 434.22 721.52 cl
0.00 0.00 841.00 727.00 cl
439.70 700.06 529.18 721.52 cl
439.70 700.06 529.18 721.52 cl
/bg { 0.8510 0.8510 0.8510 srgb } def
439.70 700.06 89.48 21.46 r p2
/Font1 findfont 14 s
0.1020 0.1020 0.1020 srgb
484.44 705.76 (6) .5 0 t
439.70 700.06 529.18 721.52 cl
439.70 700.06 529.18 721.52 cl
0.00 0.00 841.00 727.00 cl
534.66 700.06 624.14 721.52 cl
534.66 700.06 624.14 721.52 cl
/bg { 0.8510 0.8510 0.8510 srgb } def
534.66 700.06 89.48 21.46 r p2
/Font1 findfont 14 s
0.1020 0.1020 0.1020 srgb
579.40 705.76 (8) .5 0 t
534.66 700.06 624.14 721.52 cl
534.66 700.06 624.14 721.52 cl
0.00 0.00 841.00 727.00 cl
629.62 700.06 719.10 721.52 cl
629.62 700.06 719.10 721.52 cl
/bg { 0.8510 0.8510 0.8510 srgb } def
629.62 700.06 89.48 21.46 r p2
/Font1 findfont 14 s
0.1020 0.1020 0.1020 srgb
674.36 705.76 (9) .5 0 t
629.62 700.06 719.10 721.52 cl
629.62 700.06 719.10 721.52 cl
0.00 0.00 841.00 727.00 cl
724.58 700.06 814.06 721.52 cl
724.58 700.06 814.06 721.52 cl
/bg { 0.8510 0.8510 0.8510 srgb } def
724.58 700.06 89.48 21.46 r p2
/Font1 findfont 14 s
0.1020 0.1020 0.1020 srgb
769.32 705.76 (10) .5 0 t
724.58 700.06 814.06 721.52 cl
724.58 700.06 814.06 721.52 cl
0.00 0.00 841.00 727.00 cl
814.06 491.13 835.52 700.06 cl
814.06 491.13 835.52 700.06 cl
/bg { 0.8510 0.8510 0.8510 srgb } def
814.06 491.13 21.46 208.93 r p2
/Font1 findfont 14 s
0.1020 0.1020 0.1020 srgb
819.76 595.59 (base R) .5 -90.00 t
814.06 491.13 835.52 700.06 cl
814.06 491.13 835.52 700.06 cl
0.00 0.00 841.00 727.00 cl
814.06 276.71 835.52 485.65 cl
814.06 276.71 835.52 485.65 cl
/bg { 0.8510 0.8510 0.8510 srgb } def
814.06 276.71 21.46 208.93 r p2
/Font1 findfont 14 s
0.1020 0.1020 0.1020 srgb
819.76 381.18 (tilde) .5 -90.00 t
814.06 276.71 835.52 485.65 cl
814.06 276.71 835.52 485.65 cl
0.00 0.00 841.00 727.00 cl
814.06 62.30 835.52 271.23 cl
814.06 62.30 835.52 271.23 cl
/bg { 0.8510 0.8510 0.8510 srgb } def
814.06 62.30 21.46 208.93 r p2
/Font1 findfont 14 s
0.1020 0.1020 0.1020 srgb
819.76 194.77 (tidyv) -90.00 ta
-0.350 (erse) tb gr
814.06 62.30 835.52 271.23 cl
814.06 62.30 835.52 271.23 cl
0.00 0.00 841.00 727.00 cl
0.00 0.00 841.00 727.00 cl
0.00 0.00 841.00 727.00 cl
0.00 0.00 841.00 727.00 cl
0.00 0.00 841.00 727.00 cl
0.00 0.00 841.00 727.00 cl
0.00 0.00 841.00 727.00 cl
0.00 0.00 841.00 727.00 cl
0.00 0.00 841.00 727.00 cl
0.00 0.00 841.00 727.00 cl
0.00 0.00 841.00 727.00 cl
0.00 0.00 841.00 727.00 cl
0.00 0.00 841.00 727.00 cl
0.00 0.00 841.00 727.00 cl
0.00 0.00 841.00 727.00 cl
0.00 0.00 841.00 727.00 cl
0.00 0.00 841.00 727.00 cl
0.00 0.00 841.00 727.00 cl
0.00 0.00 841.00 727.00 cl
0.00 0.00 841.00 727.00 cl
0.00 0.00 841.00 727.00 cl
0.00 0.00 841.00 727.00 cl
0.2000 0.2000 0.2000 srgb
1.07 setlinewidth
[] 0 setdash
0 setlinecap
1 setlinejoin
10.00 setmiterlimit
np
84.25 59.56 m
0 2.74 l
o
np
124.93 59.56 m
0 2.74 l
o
0.00 0.00 841.00 727.00 cl
0.00 0.00 841.00 727.00 cl
/Font1 findfont 14 s
0.3020 0.3020 0.3020 srgb
84.25 47.32 (CS) .5 0 t
124.93 47.32 (Other) .5 0 t
0.00 0.00 841.00 727.00 cl
0.00 0.00 841.00 727.00 cl
0.00 0.00 841.00 727.00 cl
0.00 0.00 841.00 727.00 cl
0.00 0.00 841.00 727.00 cl
0.00 0.00 841.00 727.00 cl
0.00 0.00 841.00 727.00 cl
0.00 0.00 841.00 727.00 cl
0.2000 0.2000 0.2000 srgb
1.07 setlinewidth
[] 0 setdash
0 setlinecap
1 setlinejoin
10.00 setmiterlimit
np
179.22 59.56 m
0 2.74 l
o
np
219.89 59.56 m
0 2.74 l
o
0.00 0.00 841.00 727.00 cl
0.00 0.00 841.00 727.00 cl
/Font1 findfont 14 s
0.3020 0.3020 0.3020 srgb
179.22 47.32 (CS) .5 0 t
219.89 47.32 (Other) .5 0 t
0.00 0.00 841.00 727.00 cl
0.00 0.00 841.00 727.00 cl
0.00 0.00 841.00 727.00 cl
0.00 0.00 841.00 727.00 cl
0.00 0.00 841.00 727.00 cl
0.00 0.00 841.00 727.00 cl
0.00 0.00 841.00 727.00 cl
0.00 0.00 841.00 727.00 cl
0.2000 0.2000 0.2000 srgb
1.07 setlinewidth
[] 0 setdash
0 setlinecap
1 setlinejoin
10.00 setmiterlimit
np
274.18 59.56 m
0 2.74 l
o
np
314.85 59.56 m
0 2.74 l
o
0.00 0.00 841.00 727.00 cl
0.00 0.00 841.00 727.00 cl
/Font1 findfont 14 s
0.3020 0.3020 0.3020 srgb
274.18 47.32 (CS) .5 0 t
314.85 47.32 (Other) .5 0 t
0.00 0.00 841.00 727.00 cl
0.00 0.00 841.00 727.00 cl
0.00 0.00 841.00 727.00 cl
0.00 0.00 841.00 727.00 cl
0.00 0.00 841.00 727.00 cl
0.00 0.00 841.00 727.00 cl
0.00 0.00 841.00 727.00 cl
0.00 0.00 841.00 727.00 cl
0.2000 0.2000 0.2000 srgb
1.07 setlinewidth
[] 0 setdash
0 setlinecap
1 setlinejoin
10.00 setmiterlimit
np
369.14 59.56 m
0 2.74 l
o
np
409.81 59.56 m
0 2.74 l
o
0.00 0.00 841.00 727.00 cl
0.00 0.00 841.00 727.00 cl
/Font1 findfont 14 s
0.3020 0.3020 0.3020 srgb
369.14 47.32 (CS) .5 0 t
409.81 47.32 (Other) .5 0 t
0.00 0.00 841.00 727.00 cl
0.00 0.00 841.00 727.00 cl
0.00 0.00 841.00 727.00 cl
0.00 0.00 841.00 727.00 cl
0.00 0.00 841.00 727.00 cl
0.00 0.00 841.00 727.00 cl
0.00 0.00 841.00 727.00 cl
0.00 0.00 841.00 727.00 cl
0.2000 0.2000 0.2000 srgb
1.07 setlinewidth
[] 0 setdash
0 setlinecap
1 setlinejoin
10.00 setmiterlimit
np
464.10 59.56 m
0 2.74 l
o
np
504.77 59.56 m
0 2.74 l
o
0.00 0.00 841.00 727.00 cl
0.00 0.00 841.00 727.00 cl
/Font1 findfont 14 s
0.3020 0.3020 0.3020 srgb
464.10 47.32 (CS) .5 0 t
504.77 47.32 (Other) .5 0 t
0.00 0.00 841.00 727.00 cl
0.00 0.00 841.00 727.00 cl
0.00 0.00 841.00 727.00 cl
0.00 0.00 841.00 727.00 cl
0.00 0.00 841.00 727.00 cl
0.00 0.00 841.00 727.00 cl
0.00 0.00 841.00 727.00 cl
0.00 0.00 841.00 727.00 cl
0.2000 0.2000 0.2000 srgb
1.07 setlinewidth
[] 0 setdash
0 setlinecap
1 setlinejoin
10.00 setmiterlimit
np
559.06 59.56 m
0 2.74 l
o
np
599.73 59.56 m
0 2.74 l
o
0.00 0.00 841.00 727.00 cl
0.00 0.00 841.00 727.00 cl
/Font1 findfont 14 s
0.3020 0.3020 0.3020 srgb
559.06 47.32 (CS) .5 0 t
599.73 47.32 (Other) .5 0 t
0.00 0.00 841.00 727.00 cl
0.00 0.00 841.00 727.00 cl
0.00 0.00 841.00 727.00 cl
0.00 0.00 841.00 727.00 cl
0.00 0.00 841.00 727.00 cl
0.00 0.00 841.00 727.00 cl
0.00 0.00 841.00 727.00 cl
0.00 0.00 841.00 727.00 cl
0.2000 0.2000 0.2000 srgb
1.07 setlinewidth
[] 0 setdash
0 setlinecap
1 setlinejoin
10.00 setmiterlimit
np
654.02 59.56 m
0 2.74 l
o
np
694.70 59.56 m
0 2.74 l
o
0.00 0.00 841.00 727.00 cl
0.00 0.00 841.00 727.00 cl
/Font1 findfont 14 s
0.3020 0.3020 0.3020 srgb
654.02 47.32 (CS) .5 0 t
694.70 47.32 (Other) .5 0 t
0.00 0.00 841.00 727.00 cl
0.00 0.00 841.00 727.00 cl
0.00 0.00 841.00 727.00 cl
0.00 0.00 841.00 727.00 cl
0.00 0.00 841.00 727.00 cl
0.00 0.00 841.00 727.00 cl
0.00 0.00 841.00 727.00 cl
0.00 0.00 841.00 727.00 cl
0.2000 0.2000 0.2000 srgb
1.07 setlinewidth
[] 0 setdash
0 setlinecap
1 setlinejoin
10.00 setmiterlimit
np
748.98 59.56 m
0 2.74 l
o
np
789.66 59.56 m
0 2.74 l
o
0.00 0.00 841.00 727.00 cl
0.00 0.00 841.00 727.00 cl
/Font1 findfont 14 s
0.3020 0.3020 0.3020 srgb
748.98 47.32 (CS) .5 0 t
789.66 47.32 (Other) .5 0 t
0.00 0.00 841.00 727.00 cl
0.00 0.00 841.00 727.00 cl
0.00 0.00 841.00 727.00 cl
0.00 0.00 841.00 727.00 cl
0.00 0.00 841.00 727.00 cl
0.00 0.00 841.00 727.00 cl
0.00 0.00 841.00 727.00 cl
0.00 0.00 841.00 727.00 cl
/Font1 findfont 14 s
0.3020 0.3020 0.3020 srgb
54.92 494.07 (0) 1 0 t
54.92 555.19 (400) 1 0 t
54.92 616.32 (800) 1 0 t
54.92 677.44 (1200) 1 0 t
0.00 0.00 841.00 727.00 cl
0.00 0.00 841.00 727.00 cl
0.2000 0.2000 0.2000 srgb
1.07 setlinewidth
[] 0 setdash
0 setlinecap
1 setlinejoin
10.00 setmiterlimit
np
57.11 499.10 m
2.74 0 l
o
np
57.11 560.22 m
2.74 0 l
o
np
57.11 621.34 m
2.74 0 l
o
np
57.11 682.47 m
2.74 0 l
o
0.00 0.00 841.00 727.00 cl
0.00 0.00 841.00 727.00 cl
0.00 0.00 841.00 727.00 cl
0.00 0.00 841.00 727.00 cl
0.00 0.00 841.00 727.00 cl
0.00 0.00 841.00 727.00 cl
0.00 0.00 841.00 727.00 cl
0.00 0.00 841.00 727.00 cl
/Font1 findfont 14 s
0.3020 0.3020 0.3020 srgb
54.92 279.66 (0) 1 0 t
54.92 340.78 (400) 1 0 t
54.92 401.90 (800) 1 0 t
54.92 463.03 (1200) 1 0 t
0.00 0.00 841.00 727.00 cl
0.00 0.00 841.00 727.00 cl
0.2000 0.2000 0.2000 srgb
1.07 setlinewidth
[] 0 setdash
0 setlinecap
1 setlinejoin
10.00 setmiterlimit
np
57.11 284.68 m
2.74 0 l
o
np
57.11 345.81 m
2.74 0 l
o
np
57.11 406.93 m
2.74 0 l
o
np
57.11 468.05 m
2.74 0 l
o
0.00 0.00 841.00 727.00 cl
0.00 0.00 841.00 727.00 cl
0.00 0.00 841.00 727.00 cl
0.00 0.00 841.00 727.00 cl
0.00 0.00 841.00 727.00 cl
0.00 0.00 841.00 727.00 cl
0.00 0.00 841.00 727.00 cl
0.00 0.00 841.00 727.00 cl
/Font1 findfont 14 s
0.3020 0.3020 0.3020 srgb
54.92 65.24 (0) 1 0 t
54.92 126.37 (400) 1 0 t
54.92 187.49 (800) 1 0 t
54.92 248.61 (1200) 1 0 t
0.00 0.00 841.00 727.00 cl
0.00 0.00 841.00 727.00 cl
0.2000 0.2000 0.2000 srgb
1.07 setlinewidth
[] 0 setdash
0 setlinecap
1 setlinejoin
10.00 setmiterlimit
np
57.11 70.27 m
2.74 0 l
o
np
57.11 131.39 m
2.74 0 l
o
np
57.11 192.52 m
2.74 0 l
o
np
57.11 253.64 m
2.74 0 l
o
0.00 0.00 841.00 727.00 cl
0.00 0.00 841.00 727.00 cl
0.00 0.00 841.00 727.00 cl
0.00 0.00 841.00 727.00 cl
0.00 0.00 841.00 727.00 cl
0.00 0.00 841.00 727.00 cl
0.00 0.00 841.00 727.00 cl
0.00 0.00 841.00 727.00 cl
0.00 0.00 841.00 727.00 cl
0.00 0.00 841.00 727.00 cl
0.00 0.00 841.00 727.00 cl
0.00 0.00 841.00 727.00 cl
0.00 0.00 841.00 727.00 cl
0.00 0.00 841.00 727.00 cl
/Font1 findfont 18 s
0 0 0 srgb
18.40 381.18 (Completion Time in Seconds) .5 90 t
0.00 0.00 841.00 727.00 cl
0.00 0.00 841.00 727.00 cl
0.00 0.00 841.00 727.00 cl
0.00 0.00 841.00 727.00 cl
0.00 0.00 841.00 727.00 cl
0.00 0.00 841.00 727.00 cl
0.00 0.00 841.00 727.00 cl
0.00 0.00 841.00 727.00 cl
/bg { 1 1 1 srgb } def
346.53 5.48 180.84 28.24 r p2
0.00 0.00 841.00 727.00 cl
0.00 0.00 841.00 727.00 cl
0.00 0.00 841.00 727.00 cl
0.00 0.00 841.00 727.00 cl
/Font1 findfont 18 s
0 0 0 srgb
352.01 13.14 (Major) 0 0 t
0.00 0.00 841.00 727.00 cl
0.00 0.00 841.00 727.00 cl
0.00 0.00 841.00 727.00 cl
/bg { 0.9490 0.9490 0.9490 srgb } def
1 1 1 srgb
1.07 setlinewidth
[] 0 setdash
1 setlinecap
1 setlinejoin
10.00 setmiterlimit
405.98 10.96 17.28 17.28 r p3
0.00 0.00 841.00 727.00 cl
0.00 0.00 841.00 727.00 cl
0.2000 0.2000 0.2000 srgb
1.07 setlinewidth
[] 0 setdash
1 setlinecap
1 setlinejoin
10.00 setmiterlimit
np
414.62 12.69 m
0 2.59 l
o
np
414.62 23.92 m
0 2.59 l
o
/bg { 0.6000 0.6000 0.6000 srgb } def
408.14 15.28 12.96 8.64 r p3
np
408.14 19.60 m
12.96 0 l
o
0.00 0.00 841.00 727.00 cl
0.00 0.00 841.00 727.00 cl
/bg { 0.9490 0.9490 0.9490 srgb } def
1 1 1 srgb
1.07 setlinewidth
[] 0 setdash
1 setlinecap
1 setlinejoin
10.00 setmiterlimit
460.64 10.96 17.28 17.28 r p3
0.00 0.00 841.00 727.00 cl
0.00 0.00 841.00 727.00 cl
0.2000 0.2000 0.2000 srgb
1.07 setlinewidth
[] 0 setdash
1 setlinecap
1 setlinejoin
10.00 setmiterlimit
np
469.28 12.69 m
0 2.59 l
o
np
469.28 23.92 m
0 2.59 l
o
/bg { 0.9020 0.9020 0.9020 srgb } def
462.80 15.28 12.96 8.64 r p3
np
462.80 19.60 m
12.96 0 l
o
0.00 0.00 841.00 727.00 cl
0.00 0.00 841.00 727.00 cl
0.00 0.00 841.00 727.00 cl
0.00 0.00 841.00 727.00 cl
/Font1 findfont 14 s
0 0 0 srgb
432.23 14.57 (CS) 0 0 t
0.00 0.00 841.00 727.00 cl
0.00 0.00 841.00 727.00 cl
0.00 0.00 841.00 727.00 cl
0.00 0.00 841.00 727.00 cl
0.00 0.00 841.00 727.00 cl
/Font1 findfont 14 s
0 0 0 srgb
486.88 14.57 (Other) 0 0 t
0.00 0.00 841.00 727.00 cl
0.00 0.00 841.00 727.00 cl
0.00 0.00 841.00 727.00 cl
0.00 0.00 841.00 727.00 cl
0.00 0.00 841.00 727.00 cl
0.00 0.00 841.00 727.00 cl
0.00 0.00 841.00 727.00 cl
0.00 0.00 841.00 727.00 cl
0.00 0.00 841.00 727.00 cl
0.00 0.00 841.00 727.00 cl
0.00 0.00 841.00 727.00 cl
0.00 0.00 841.00 727.00 cl
0.00 0.00 841.00 727.00 cl
ep
%%Trailer
%%Pages: 1
%%EOF
