%!PS-Adobe-3.0 EPSF-3.0
%%DocumentNeededResources: font Helvetica
%%+ font Helvetica-Bold
%%+ font Helvetica-Oblique
%%+ font Helvetica-BoldOblique
%%+ font Symbol
%%Title: R Graphics Output
%%Creator: R Software
%%Pages: (atend)
%%BoundingBox: 0 0 776 416
%%EndComments
%%BeginProlog
/bp  { gs sRGB gs } def
% begin .ps.prolog
/gs  { gsave } bind def
/gr  { grestore } bind def
/ep  { showpage gr gr } bind def
/m   { moveto } bind def
/l  { rlineto } bind def
/np  { newpath } bind def
/cp  { closepath } bind def
/f   { fill } bind def
/o   { stroke } bind def
/c   { newpath 0 360 arc } bind def
/r   { 4 2 roll moveto 1 copy 3 -1 roll exch 0 exch rlineto 0 rlineto -1 mul 0 exch rlineto closepath } bind def
/p1  { stroke } bind def
/p2  { gsave bg fill grestore newpath } bind def
/p3  { gsave bg fill grestore stroke } bind def
/p6  { gsave bg eofill grestore newpath } bind def
/p7  { gsave bg eofill grestore stroke } bind def
/t   { 5 -2 roll moveto gsave rotate
       1 index stringwidth pop
       mul neg 0 rmoveto show grestore } bind def
/ta  { 4 -2 roll moveto gsave rotate show } bind def
/tb  { 2 -1 roll 0 rmoveto show } bind def
/cl  { grestore gsave newpath 3 index 3 index moveto 1 index
       4 -1 roll lineto  exch 1 index lineto lineto
       closepath clip newpath } bind def
/rgb { setrgbcolor } bind def
/s   { scalefont setfont } bind def
% end   .ps.prolog
/sRGB { [ /CIEBasedABC
          << /DecodeLMN
               [ { dup 0.03928 le
                        {12.92321 div}
                        {0.055 add 1.055 div 2.4 exp }
                     ifelse
                 } bind dup dup
               ]
             /MatrixLMN [0.412457 0.212673 0.019334
                         0.357576 0.715152 0.119192
                         0.180437 0.072175 0.950301]
             /WhitePoint [0.9505 1.0 1.0890]
           >>
         ] setcolorspace } bind def
/srgb { setcolor } bind def
% begin encoding
/WinAnsiEncoding [
 /.notdef /.notdef /.notdef /.notdef /.notdef /.notdef /.notdef /.notdef
 /.notdef /.notdef /.notdef /.notdef /.notdef /.notdef /.notdef /.notdef
 /.notdef /.notdef /.notdef /.notdef /.notdef /.notdef /.notdef /.notdef
 /.notdef /.notdef /.notdef /.notdef /.notdef /.notdef /.notdef /.notdef
 /space /exclam /quotedbl /numbersign /dollar /percent /ampersand /quoteright
 /parenleft /parenright /asterisk /plus /comma /minus /period /slash
 /zero /one /two /three /four /five /six /seven
 /eight /nine /colon /semicolon /less /equal /greater /question
 /at /A /B /C /D /E /F /G
 /H /I /J /K /L /M /N /O
 /P /Q /R /S /T /U /V /W
 /X /Y /Z /bracketleft /backslash /bracketright /asciicircum /underscore
 /grave /a /b /c /d /e /f /g
 /h /i /j /k /l /m /n /o
 /p /q /r /s /t /u /v /w
 /x /y /z /braceleft /bar /braceright /asciitilde /.notdef
 /Euro /.notdef /quotesinglbase /florin /quotedblbase /ellipsis /dagger /daggerdbl
 /circumflex /perthousand /Scaron /guilsinglleft /OE /.notdef /Zcaron /.notdef
 /.notdef /quoteleft /quoteright /quotedblleft /quotedblright /bullet /endash /emdash
 /tilde /trademark /scaron /guilsinglright /oe /.notdef /zcaron /Ydieresis
 /space /exclamdown /cent /sterling /currency /yen /brokenbar /section
 /dieresis /copyright /ordfeminine /guillemotleft /logicalnot /hyphen /registered /macron
 /degree /plusminus /twosuperior /threesuperior /acute /mu /paragraph /periodcentered
 /cedilla /onesuperior /ordmasculine /guillemotright /onequarter /onehalf /threequarters /questiondown
 /Agrave /Aacute /Acircumflex /Atilde /Adieresis /Aring /AE /Ccedilla
 /Egrave /Eacute /Ecircumflex /Edieresis /Igrave /Iacute /Icircumflex /Idieresis
 /Eth /Ntilde /Ograve /Oacute /Ocircumflex /Otilde /Odieresis /multiply
 /Oslash /Ugrave /Uacute /Ucircumflex /Udieresis /Yacute /Thorn /germandbls
 /agrave /aacute /acircumflex /atilde /adieresis /aring /ae /ccedilla
 /egrave /eacute /ecircumflex /edieresis /igrave /iacute /icircumflex /idieresis
 /eth /ntilde /ograve /oacute /ocircumflex /otilde /odieresis /divide
 /oslash /ugrave /uacute /ucircumflex /udieresis /yacute /thorn /ydieresis
]
 def
% end encoding
%%IncludeResource: font Helvetica
/Helvetica findfont
dup length dict begin
  {1 index /FID ne {def} {pop pop} ifelse} forall
  /Encoding WinAnsiEncoding def
  currentdict
  end
/Font1 exch definefont pop
%%IncludeResource: font Helvetica-Bold
/Helvetica-Bold findfont
dup length dict begin
  {1 index /FID ne {def} {pop pop} ifelse} forall
  /Encoding WinAnsiEncoding def
  currentdict
  end
/Font2 exch definefont pop
%%IncludeResource: font Helvetica-Oblique
/Helvetica-Oblique findfont
dup length dict begin
  {1 index /FID ne {def} {pop pop} ifelse} forall
  /Encoding WinAnsiEncoding def
  currentdict
  end
/Font3 exch definefont pop
%%IncludeResource: font Helvetica-BoldOblique
/Helvetica-BoldOblique findfont
dup length dict begin
  {1 index /FID ne {def} {pop pop} ifelse} forall
  /Encoding WinAnsiEncoding def
  currentdict
  end
/Font4 exch definefont pop
%%IncludeResource: font Symbol
/Symbol findfont
dup length dict begin
  {1 index /FID ne {def} {pop pop} ifelse} forall
  currentdict
  end
/Font5 exch definefont pop
%%EndProlog
%%Page: 1 1
bp
0.00 0.00 776.25 416.25 cl
0.00 0.00 776.25 416.25 cl
0.00 0.00 776.25 416.25 cl
0.00 0.00 776.25 416.25 cl
0.00 0.00 776.25 416.25 cl
0.00 0.00 776.25 416.25 cl
0.00 0.00 776.25 416.25 cl
0.00 0.00 776.25 416.25 cl
0.00 0.00 776.25 416.25 cl
0.00 0.00 776.25 416.25 cl
0.00 0.00 776.25 416.25 cl
0.00 0.00 776.25 416.25 cl
0.00 0.00 776.25 416.25 cl
0.00 0.00 776.25 416.25 cl
0.00 0.00 776.25 416.25 cl
0.00 0.00 776.25 416.25 cl
0.00 0.00 776.25 416.25 cl
0.00 0.00 776.25 416.25 cl
0.00 0.00 776.25 416.25 cl
0.00 0.00 776.25 416.25 cl
0.00 0.00 776.25 416.25 cl
0.00 0.00 776.25 416.25 cl
0.00 0.00 776.25 416.25 cl
0.00 0.00 776.25 416.25 cl
0.00 0.00 776.25 416.25 cl
0.00 0.00 776.25 416.25 cl
0.00 0.00 776.25 416.25 cl
0.00 0.00 776.25 416.25 cl
0.00 0.00 776.25 416.25 cl
0.00 0.00 776.25 416.25 cl
0.00 0.00 776.25 416.25 cl
0.00 0.00 776.25 416.25 cl
0.00 0.00 776.25 416.25 cl
0.00 0.00 776.25 416.25 cl
0.00 0.00 776.25 416.25 cl
/bg { 1 1 1 srgb } def
1 1 1 srgb
1.07 setlinewidth
[] 0 setdash
1 setlinecap
1 setlinejoin
10.00 setmiterlimit
0.00 0.00 776.25 416.25 r p3
0.00 0.00 776.25 416.25 cl
54.15 291.17 135.80 385.72 cl
/bg { 0.9216 0.9216 0.9216 srgb } def
54.15 291.17 81.65 94.56 r p2
1 1 1 srgb
0.53 setlinewidth
[] 0 setdash
0 setlinecap
1 setlinejoin
10.00 setmiterlimit
np
54.15 309.79 m
81.65 0 l
o
np
54.15 338.44 m
81.65 0 l
o
np
54.15 367.10 m
81.65 0 l
o
1.07 setlinewidth
[] 0 setdash
np
54.15 295.46 m
81.65 0 l
o
np
54.15 324.12 m
81.65 0 l
o
np
54.15 352.77 m
81.65 0 l
o
np
54.15 381.42 m
81.65 0 l
o
np
76.42 291.17 m
0 94.55 l
o
np
113.53 291.17 m
0 94.55 l
o
/bg { 0.2000 0.2000 0.2000 srgb } def
0.2000 0.2000 0.2000 srgb
0.71 setlinewidth
[] 0 setdash
1 setlinecap
76.42 318.39 1.95 c p3
76.42 315.52 1.95 c p3
1.07 setlinewidth
[] 0 setdash
0 setlinecap
np
76.42 303.34 m
0 0.72 l
o
np
76.42 295.46 m
0 0 l
o
/bg { 0.6000 0.6000 0.6000 srgb } def
1 setlinecap
np
 62.50 303.34 m
0 -7.88 l
27.84 0 l
0 7.88 l
-27.84 0 l
cp p3
2.13 setlinewidth
[] 0 setdash
0 setlinecap
np
62.50 295.46 m
27.84 0 l
o
1.07 setlinewidth
[] 0 setdash
np
113.53 316.24 m
0 22.20 l
o
np
113.53 295.46 m
0 0 l
o
/bg { 0.9020 0.9020 0.9020 srgb } def
1 setlinecap
np
 99.62 316.24 m
0 -20.78 l
27.83 0 l
0 20.78 l
-27.83 0 l
cp p3
2.13 setlinewidth
[] 0 setdash
0 setlinecap
np
99.62 301.19 m
27.83 0 l
o
0.00 0.00 776.25 416.25 cl
54.15 191.13 135.80 285.69 cl
/bg { 0.9216 0.9216 0.9216 srgb } def
54.15 191.13 81.65 94.56 r p2
1 1 1 srgb
0.53 setlinewidth
[] 0 setdash
0 setlinecap
1 setlinejoin
10.00 setmiterlimit
np
54.15 209.75 m
81.65 0 l
o
np
54.15 238.41 m
81.65 0 l
o
np
54.15 267.06 m
81.65 0 l
o
1.07 setlinewidth
[] 0 setdash
np
54.15 195.43 m
81.65 0 l
o
np
54.15 224.08 m
81.65 0 l
o
np
54.15 252.73 m
81.65 0 l
o
np
54.15 281.39 m
81.65 0 l
o
np
76.42 191.13 m
0 94.56 l
o
np
113.53 191.13 m
0 94.56 l
o
0.2000 0.2000 0.2000 srgb
np
76.42 215.49 m
0 5.73 l
o
np
76.42 197.58 m
0 -2.15 l
o
/bg { 0.6000 0.6000 0.6000 srgb } def
1 setlinecap
np
 62.50 215.49 m
0 -17.91 l
27.84 0 l
0 17.91 l
-27.84 0 l
cp p3
2.13 setlinewidth
[] 0 setdash
0 setlinecap
np
62.50 198.29 m
27.84 0 l
o
/bg { 0.2000 0.2000 0.2000 srgb } def
0.71 setlinewidth
[] 0 setdash
1 setlinecap
113.53 275.66 1.95 c p3
1.07 setlinewidth
[] 0 setdash
0 setlinecap
np
113.53 221.22 m
0 14.32 l
o
np
113.53 195.43 m
0 0 l
o
/bg { 0.9020 0.9020 0.9020 srgb } def
1 setlinecap
np
 99.62 221.22 m
0 -25.79 l
27.83 0 l
0 25.79 l
-27.83 0 l
cp p3
2.13 setlinewidth
[] 0 setdash
0 setlinecap
np
99.62 201.16 m
27.83 0 l
o
0.00 0.00 776.25 416.25 cl
54.15 91.09 135.80 185.65 cl
/bg { 0.9216 0.9216 0.9216 srgb } def
54.15 91.09 81.65 94.56 r p2
1 1 1 srgb
0.53 setlinewidth
[] 0 setdash
0 setlinecap
1 setlinejoin
10.00 setmiterlimit
np
54.15 109.72 m
81.65 0 l
o
np
54.15 138.37 m
81.65 0 l
o
np
54.15 167.03 m
81.65 0 l
o
1.07 setlinewidth
[] 0 setdash
np
54.15 95.39 m
81.65 0 l
o
np
54.15 124.05 m
81.65 0 l
o
np
54.15 152.70 m
81.65 0 l
o
np
54.15 181.35 m
81.65 0 l
o
np
76.42 91.09 m
0 94.56 l
o
np
113.53 91.09 m
0 94.56 l
o
0.2000 0.2000 0.2000 srgb
np
76.42 108.29 m
0 15.76 l
o
np
76.42 95.39 m
0 0 l
o
/bg { 0.6000 0.6000 0.6000 srgb } def
1 setlinecap
np
 62.50 108.29 m
0 -12.90 l
27.84 0 l
0 12.90 l
-27.84 0 l
cp p3
2.13 setlinewidth
[] 0 setdash
0 setlinecap
np
62.50 95.39 m
27.84 0 l
o
/bg { 0.2000 0.2000 0.2000 srgb } def
0.71 setlinewidth
[] 0 setdash
1 setlinecap
113.53 135.51 1.95 c p3
113.53 167.03 1.95 c p3
1.07 setlinewidth
[] 0 setdash
0 setlinecap
np
113.53 109.72 m
0 20.06 l
o
np
113.53 95.39 m
0 0 l
o
/bg { 0.9020 0.9020 0.9020 srgb } def
1 setlinecap
np
 99.62 109.72 m
0 -14.33 l
27.83 0 l
0 14.33 l
-27.83 0 l
cp p3
2.13 setlinewidth
[] 0 setdash
0 setlinecap
np
99.62 98.26 m
27.83 0 l
o
0.00 0.00 776.25 416.25 cl
141.28 291.17 222.93 385.72 cl
/bg { 0.9216 0.9216 0.9216 srgb } def
141.28 291.17 81.65 94.56 r p2
1 1 1 srgb
0.53 setlinewidth
[] 0 setdash
0 setlinecap
1 setlinejoin
10.00 setmiterlimit
np
141.28 309.79 m
81.65 0 l
o
np
141.28 338.44 m
81.65 0 l
o
np
141.28 367.10 m
81.65 0 l
o
1.07 setlinewidth
[] 0 setdash
np
141.28 295.46 m
81.65 0 l
o
np
141.28 324.12 m
81.65 0 l
o
np
141.28 352.77 m
81.65 0 l
o
np
141.28 381.42 m
81.65 0 l
o
np
163.55 291.17 m
0 94.55 l
o
np
200.67 291.17 m
0 94.55 l
o
/bg { 0.2000 0.2000 0.2000 srgb } def
0.2000 0.2000 0.2000 srgb
0.71 setlinewidth
[] 0 setdash
1 setlinecap
163.55 304.06 1.95 c p3
163.55 309.79 1.95 c p3
1.07 setlinewidth
[] 0 setdash
0 setlinecap
np
163.55 295.46 m
0 0 l
o
np
163.55 295.46 m
0 0 l
o
/bg { 0.6000 0.6000 0.6000 srgb } def
1 setlinecap
np
 149.63 295.46 m
0 0 l
27.84 0 l
0 0 l
-27.84 0 l
cp p3
2.13 setlinewidth
[] 0 setdash
0 setlinecap
np
149.63 295.46 m
27.84 0 l
o
/bg { 0.2000 0.2000 0.2000 srgb } def
0.71 setlinewidth
[] 0 setdash
1 setlinecap
200.67 344.17 1.95 c p3
200.67 321.25 1.95 c p3
200.67 312.66 1.95 c p3
200.67 372.83 1.95 c p3
1.07 setlinewidth
[] 0 setdash
0 setlinecap
np
200.67 301.19 m
0 5.73 l
o
np
200.67 295.46 m
0 0 l
o
/bg { 0.9020 0.9020 0.9020 srgb } def
1 setlinecap
np
 186.75 301.19 m
0 -5.73 l
27.83 0 l
0 5.73 l
-27.83 0 l
cp p3
2.13 setlinewidth
[] 0 setdash
0 setlinecap
np
186.75 295.46 m
27.83 0 l
o
0.00 0.00 776.25 416.25 cl
141.28 191.13 222.93 285.69 cl
/bg { 0.9216 0.9216 0.9216 srgb } def
141.28 191.13 81.65 94.56 r p2
1 1 1 srgb
0.53 setlinewidth
[] 0 setdash
0 setlinecap
1 setlinejoin
10.00 setmiterlimit
np
141.28 209.75 m
81.65 0 l
o
np
141.28 238.41 m
81.65 0 l
o
np
141.28 267.06 m
81.65 0 l
o
1.07 setlinewidth
[] 0 setdash
np
141.28 195.43 m
81.65 0 l
o
np
141.28 224.08 m
81.65 0 l
o
np
141.28 252.73 m
81.65 0 l
o
np
141.28 281.39 m
81.65 0 l
o
np
163.55 191.13 m
0 94.56 l
o
np
200.67 191.13 m
0 94.56 l
o
/bg { 0.2000 0.2000 0.2000 srgb } def
0.2000 0.2000 0.2000 srgb
0.71 setlinewidth
[] 0 setdash
1 setlinecap
163.55 212.62 1.95 c p3
163.55 212.62 1.95 c p3
163.55 221.22 1.95 c p3
1.07 setlinewidth
[] 0 setdash
0 setlinecap
np
163.55 201.87 m
0 0 l
o
np
163.55 195.43 m
0 0 l
o
/bg { 0.6000 0.6000 0.6000 srgb } def
1 setlinecap
np
 149.63 201.87 m
0 -6.44 l
27.84 0 l
0 6.44 l
-27.84 0 l
cp p3
2.13 setlinewidth
[] 0 setdash
0 setlinecap
np
149.63 195.43 m
27.84 0 l
o
/bg { 0.2000 0.2000 0.2000 srgb } def
0.71 setlinewidth
[] 0 setdash
1 setlinecap
200.67 212.62 1.95 c p3
200.67 258.47 1.95 c p3
200.67 224.08 1.95 c p3
200.67 226.95 1.95 c p3
200.67 229.81 1.95 c p3
200.67 224.08 1.95 c p3
1.07 setlinewidth
[] 0 setdash
0 setlinecap
np
200.67 201.16 m
0 8.59 l
o
np
200.67 195.43 m
0 0 l
o
/bg { 0.9020 0.9020 0.9020 srgb } def
1 setlinecap
np
 186.75 201.16 m
0 -5.73 l
27.83 0 l
0 5.73 l
-27.83 0 l
cp p3
2.13 setlinewidth
[] 0 setdash
0 setlinecap
np
186.75 198.29 m
27.83 0 l
o
0.00 0.00 776.25 416.25 cl
141.28 91.09 222.93 185.65 cl
/bg { 0.9216 0.9216 0.9216 srgb } def
141.28 91.09 81.65 94.56 r p2
1 1 1 srgb
0.53 setlinewidth
[] 0 setdash
0 setlinecap
1 setlinejoin
10.00 setmiterlimit
np
141.28 109.72 m
81.65 0 l
o
np
141.28 138.37 m
81.65 0 l
o
np
141.28 167.03 m
81.65 0 l
o
1.07 setlinewidth
[] 0 setdash
np
141.28 95.39 m
81.65 0 l
o
np
141.28 124.05 m
81.65 0 l
o
np
141.28 152.70 m
81.65 0 l
o
np
141.28 181.35 m
81.65 0 l
o
np
163.55 91.09 m
0 94.56 l
o
np
200.67 91.09 m
0 94.56 l
o
/bg { 0.2000 0.2000 0.2000 srgb } def
0.2000 0.2000 0.2000 srgb
0.71 setlinewidth
[] 0 setdash
1 setlinecap
163.55 172.76 1.95 c p3
1.07 setlinewidth
[] 0 setdash
0 setlinecap
np
163.55 106.85 m
0 11.47 l
o
np
163.55 95.39 m
0 0 l
o
/bg { 0.6000 0.6000 0.6000 srgb } def
1 setlinecap
np
 149.63 106.85 m
0 -11.46 l
27.84 0 l
0 11.46 l
-27.84 0 l
cp p3
2.13 setlinewidth
[] 0 setdash
0 setlinecap
np
149.63 95.39 m
27.84 0 l
o
/bg { 0.2000 0.2000 0.2000 srgb } def
0.71 setlinewidth
[] 0 setdash
1 setlinecap
200.67 146.97 1.95 c p3
200.67 126.91 1.95 c p3
200.67 121.18 1.95 c p3
200.67 118.32 1.95 c p3
200.67 135.51 1.95 c p3
200.67 129.78 1.95 c p3
200.67 141.24 1.95 c p3
1.07 setlinewidth
[] 0 setdash
0 setlinecap
np
200.67 101.84 m
0 7.88 l
o
np
200.67 95.39 m
0 0 l
o
/bg { 0.9020 0.9020 0.9020 srgb } def
1 setlinecap
np
 186.75 101.84 m
0 -6.45 l
27.83 0 l
0 6.45 l
-27.83 0 l
cp p3
2.13 setlinewidth
[] 0 setdash
0 setlinecap
np
186.75 95.39 m
27.83 0 l
o
0.00 0.00 776.25 416.25 cl
228.41 291.17 310.07 385.72 cl
/bg { 0.9216 0.9216 0.9216 srgb } def
228.41 291.17 81.65 94.56 r p2
1 1 1 srgb
0.53 setlinewidth
[] 0 setdash
0 setlinecap
1 setlinejoin
10.00 setmiterlimit
np
228.41 309.79 m
81.66 0 l
o
np
228.41 338.44 m
81.66 0 l
o
np
228.41 367.10 m
81.66 0 l
o
1.07 setlinewidth
[] 0 setdash
np
228.41 295.46 m
81.66 0 l
o
np
228.41 324.12 m
81.66 0 l
o
np
228.41 352.77 m
81.66 0 l
o
np
228.41 381.42 m
81.66 0 l
o
np
250.68 291.17 m
0 94.55 l
o
np
287.80 291.17 m
0 94.55 l
o
/bg { 0.2000 0.2000 0.2000 srgb } def
0.2000 0.2000 0.2000 srgb
0.71 setlinewidth
[] 0 setdash
1 setlinecap
250.68 298.33 1.95 c p3
1.07 setlinewidth
[] 0 setdash
0 setlinecap
np
250.68 295.46 m
0 0 l
o
np
250.68 295.46 m
0 0 l
o
/bg { 0.6000 0.6000 0.6000 srgb } def
1 setlinecap
np
 236.76 295.46 m
0 0 l
27.84 0 l
0 0 l
-27.84 0 l
cp p3
2.13 setlinewidth
[] 0 setdash
0 setlinecap
np
236.76 295.46 m
27.84 0 l
o
/bg { 0.2000 0.2000 0.2000 srgb } def
0.71 setlinewidth
[] 0 setdash
1 setlinecap
287.80 312.66 1.95 c p3
287.80 309.79 1.95 c p3
287.80 304.06 1.95 c p3
287.80 312.66 1.95 c p3
287.80 344.17 1.95 c p3
287.80 306.92 1.95 c p3
287.80 318.39 1.95 c p3
1.07 setlinewidth
[] 0 setdash
0 setlinecap
np
287.80 298.33 m
0 2.86 l
o
np
287.80 295.46 m
0 0 l
o
/bg { 0.9020 0.9020 0.9020 srgb } def
1 setlinecap
np
 273.88 298.33 m
0 -2.87 l
27.83 0 l
0 2.87 l
-27.83 0 l
cp p3
2.13 setlinewidth
[] 0 setdash
0 setlinecap
np
273.88 295.46 m
27.83 0 l
o
0.00 0.00 776.25 416.25 cl
228.41 191.13 310.07 285.69 cl
/bg { 0.9216 0.9216 0.9216 srgb } def
228.41 191.13 81.65 94.56 r p2
1 1 1 srgb
0.53 setlinewidth
[] 0 setdash
0 setlinecap
1 setlinejoin
10.00 setmiterlimit
np
228.41 209.75 m
81.66 0 l
o
np
228.41 238.41 m
81.66 0 l
o
np
228.41 267.06 m
81.66 0 l
o
1.07 setlinewidth
[] 0 setdash
np
228.41 195.43 m
81.66 0 l
o
np
228.41 224.08 m
81.66 0 l
o
np
228.41 252.73 m
81.66 0 l
o
np
228.41 281.39 m
81.66 0 l
o
np
250.68 191.13 m
0 94.56 l
o
np
287.80 191.13 m
0 94.56 l
o
/bg { 0.2000 0.2000 0.2000 srgb } def
0.2000 0.2000 0.2000 srgb
0.71 setlinewidth
[] 0 setdash
1 setlinecap
250.68 198.29 1.95 c p3
250.68 209.75 1.95 c p3
1.07 setlinewidth
[] 0 setdash
0 setlinecap
np
250.68 195.43 m
0 0 l
o
np
250.68 195.43 m
0 0 l
o
/bg { 0.6000 0.6000 0.6000 srgb } def
1 setlinecap
np
 236.76 195.43 m
0 0 l
27.84 0 l
0 0 l
-27.84 0 l
cp p3
2.13 setlinewidth
[] 0 setdash
0 setlinecap
np
236.76 195.43 m
27.84 0 l
o
/bg { 0.2000 0.2000 0.2000 srgb } def
0.71 setlinewidth
[] 0 setdash
1 setlinecap
287.80 212.62 1.95 c p3
287.80 244.14 1.95 c p3
287.80 206.89 1.95 c p3
287.80 235.54 1.95 c p3
287.80 201.16 1.95 c p3
287.80 232.68 1.95 c p3
1.07 setlinewidth
[] 0 setdash
0 setlinecap
np
287.80 196.86 m
0 1.43 l
o
np
287.80 195.43 m
0 0 l
o
/bg { 0.9020 0.9020 0.9020 srgb } def
1 setlinecap
np
 273.88 196.86 m
0 -1.43 l
27.83 0 l
0 1.43 l
-27.83 0 l
cp p3
2.13 setlinewidth
[] 0 setdash
0 setlinecap
np
273.88 195.43 m
27.83 0 l
o
0.00 0.00 776.25 416.25 cl
228.41 91.09 310.07 185.65 cl
/bg { 0.9216 0.9216 0.9216 srgb } def
228.41 91.09 81.65 94.56 r p2
1 1 1 srgb
0.53 setlinewidth
[] 0 setdash
0 setlinecap
1 setlinejoin
10.00 setmiterlimit
np
228.41 109.72 m
81.66 0 l
o
np
228.41 138.37 m
81.66 0 l
o
np
228.41 167.03 m
81.66 0 l
o
1.07 setlinewidth
[] 0 setdash
np
228.41 95.39 m
81.66 0 l
o
np
228.41 124.05 m
81.66 0 l
o
np
228.41 152.70 m
81.66 0 l
o
np
228.41 181.35 m
81.66 0 l
o
np
250.68 91.09 m
0 94.56 l
o
np
287.80 91.09 m
0 94.56 l
o
/bg { 0.2000 0.2000 0.2000 srgb } def
0.2000 0.2000 0.2000 srgb
0.71 setlinewidth
[] 0 setdash
1 setlinecap
250.68 121.18 1.95 c p3
1.07 setlinewidth
[] 0 setdash
0 setlinecap
np
250.68 95.39 m
0 0 l
o
np
250.68 95.39 m
0 0 l
o
/bg { 0.6000 0.6000 0.6000 srgb } def
1 setlinecap
np
 236.76 95.39 m
0 0 l
27.84 0 l
0 0 l
-27.84 0 l
cp p3
2.13 setlinewidth
[] 0 setdash
0 setlinecap
np
236.76 95.39 m
27.84 0 l
o
/bg { 0.2000 0.2000 0.2000 srgb } def
0.71 setlinewidth
[] 0 setdash
1 setlinecap
287.80 129.78 1.95 c p3
287.80 146.97 1.95 c p3
1.07 setlinewidth
[] 0 setdash
0 setlinecap
np
287.80 103.99 m
0 11.46 l
o
np
287.80 95.39 m
0 0 l
o
/bg { 0.9020 0.9020 0.9020 srgb } def
1 setlinecap
np
 273.88 103.99 m
0 -8.60 l
27.83 0 l
0 8.60 l
-27.83 0 l
cp p3
2.13 setlinewidth
[] 0 setdash
0 setlinecap
np
273.88 95.39 m
27.83 0 l
o
0.00 0.00 776.25 416.25 cl
315.54 291.17 397.20 385.72 cl
/bg { 0.9216 0.9216 0.9216 srgb } def
315.54 291.17 81.65 94.56 r p2
1 1 1 srgb
0.53 setlinewidth
[] 0 setdash
0 setlinecap
1 setlinejoin
10.00 setmiterlimit
np
315.54 309.79 m
81.66 0 l
o
np
315.54 338.44 m
81.66 0 l
o
np
315.54 367.10 m
81.66 0 l
o
1.07 setlinewidth
[] 0 setdash
np
315.54 295.46 m
81.66 0 l
o
np
315.54 324.12 m
81.66 0 l
o
np
315.54 352.77 m
81.66 0 l
o
np
315.54 381.42 m
81.66 0 l
o
np
337.81 291.17 m
0 94.55 l
o
np
374.93 291.17 m
0 94.55 l
o
/bg { 0.2000 0.2000 0.2000 srgb } def
0.2000 0.2000 0.2000 srgb
0.71 setlinewidth
[] 0 setdash
1 setlinecap
337.81 372.83 1.95 c p3
1.07 setlinewidth
[] 0 setdash
0 setlinecap
np
337.81 315.52 m
0 17.19 l
o
np
337.81 295.46 m
0 0 l
o
/bg { 0.6000 0.6000 0.6000 srgb } def
1 setlinecap
np
 323.90 315.52 m
0 -20.06 l
27.83 0 l
0 20.06 l
-27.83 0 l
cp p3
2.13 setlinewidth
[] 0 setdash
0 setlinecap
np
323.90 301.19 m
27.83 0 l
o
1.07 setlinewidth
[] 0 setdash
np
374.93 329.85 m
0 42.98 l
o
np
374.93 295.46 m
0 0 l
o
/bg { 0.9020 0.9020 0.9020 srgb } def
1 setlinecap
np
 361.01 329.85 m
0 -34.39 l
27.84 0 l
0 34.39 l
-27.84 0 l
cp p3
2.13 setlinewidth
[] 0 setdash
0 setlinecap
np
361.01 301.19 m
27.84 0 l
o
0.00 0.00 776.25 416.25 cl
315.54 191.13 397.20 285.69 cl
/bg { 0.9216 0.9216 0.9216 srgb } def
315.54 191.13 81.65 94.56 r p2
1 1 1 srgb
0.53 setlinewidth
[] 0 setdash
0 setlinecap
1 setlinejoin
10.00 setmiterlimit
np
315.54 209.75 m
81.66 0 l
o
np
315.54 238.41 m
81.66 0 l
o
np
315.54 267.06 m
81.66 0 l
o
1.07 setlinewidth
[] 0 setdash
np
315.54 195.43 m
81.66 0 l
o
np
315.54 224.08 m
81.66 0 l
o
np
315.54 252.73 m
81.66 0 l
o
np
315.54 281.39 m
81.66 0 l
o
np
337.81 191.13 m
0 94.56 l
o
np
374.93 191.13 m
0 94.56 l
o
0.2000 0.2000 0.2000 srgb
np
337.81 201.16 m
0 0 l
o
np
337.81 195.43 m
0 0 l
o
/bg { 0.6000 0.6000 0.6000 srgb } def
1 setlinecap
np
 323.90 201.16 m
0 -5.73 l
27.83 0 l
0 5.73 l
-27.83 0 l
cp p3
2.13 setlinewidth
[] 0 setdash
0 setlinecap
np
323.90 195.43 m
27.83 0 l
o
/bg { 0.2000 0.2000 0.2000 srgb } def
0.71 setlinewidth
[] 0 setdash
1 setlinecap
374.93 241.27 1.95 c p3
374.93 258.47 1.95 c p3
374.93 252.73 1.95 c p3
374.93 249.87 1.95 c p3
1.07 setlinewidth
[] 0 setdash
0 setlinecap
np
374.93 206.89 m
0 14.33 l
o
np
374.93 195.43 m
0 0 l
o
/bg { 0.9020 0.9020 0.9020 srgb } def
1 setlinecap
np
 361.01 206.89 m
0 -11.46 l
27.84 0 l
0 11.46 l
-27.84 0 l
cp p3
2.13 setlinewidth
[] 0 setdash
0 setlinecap
np
361.01 195.43 m
27.84 0 l
o
0.00 0.00 776.25 416.25 cl
315.54 91.09 397.20 185.65 cl
/bg { 0.9216 0.9216 0.9216 srgb } def
315.54 91.09 81.65 94.56 r p2
1 1 1 srgb
0.53 setlinewidth
[] 0 setdash
0 setlinecap
1 setlinejoin
10.00 setmiterlimit
np
315.54 109.72 m
81.66 0 l
o
np
315.54 138.37 m
81.66 0 l
o
np
315.54 167.03 m
81.66 0 l
o
1.07 setlinewidth
[] 0 setdash
np
315.54 95.39 m
81.66 0 l
o
np
315.54 124.05 m
81.66 0 l
o
np
315.54 152.70 m
81.66 0 l
o
np
315.54 181.35 m
81.66 0 l
o
np
337.81 91.09 m
0 94.56 l
o
np
374.93 91.09 m
0 94.56 l
o
/bg { 0.2000 0.2000 0.2000 srgb } def
0.2000 0.2000 0.2000 srgb
0.71 setlinewidth
[] 0 setdash
1 setlinecap
337.81 98.26 1.95 c p3
337.81 103.99 1.95 c p3
1.07 setlinewidth
[] 0 setdash
0 setlinecap
np
337.81 95.39 m
0 0 l
o
np
337.81 95.39 m
0 0 l
o
/bg { 0.6000 0.6000 0.6000 srgb } def
1 setlinecap
np
 323.90 95.39 m
0 0 l
27.83 0 l
0 0 l
-27.83 0 l
cp p3
2.13 setlinewidth
[] 0 setdash
0 setlinecap
np
323.90 95.39 m
27.83 0 l
o
/bg { 0.2000 0.2000 0.2000 srgb } def
0.71 setlinewidth
[] 0 setdash
1 setlinecap
374.93 112.58 1.95 c p3
374.93 112.58 1.95 c p3
374.93 155.56 1.95 c p3
374.93 135.51 1.95 c p3
1.07 setlinewidth
[] 0 setdash
0 setlinecap
np
374.93 101.12 m
0 8.60 l
o
np
374.93 95.39 m
0 0 l
o
/bg { 0.9020 0.9020 0.9020 srgb } def
1 setlinecap
np
 361.01 101.12 m
0 -5.73 l
27.84 0 l
0 5.73 l
-27.84 0 l
cp p3
2.13 setlinewidth
[] 0 setdash
0 setlinecap
np
361.01 98.26 m
27.84 0 l
o
0.00 0.00 776.25 416.25 cl
402.68 291.17 484.33 385.72 cl
/bg { 0.9216 0.9216 0.9216 srgb } def
402.68 291.17 81.65 94.56 r p2
1 1 1 srgb
0.53 setlinewidth
[] 0 setdash
0 setlinecap
1 setlinejoin
10.00 setmiterlimit
np
402.68 309.79 m
81.65 0 l
o
np
402.68 338.44 m
81.65 0 l
o
np
402.68 367.10 m
81.65 0 l
o
1.07 setlinewidth
[] 0 setdash
np
402.68 295.46 m
81.65 0 l
o
np
402.68 324.12 m
81.65 0 l
o
np
402.68 352.77 m
81.65 0 l
o
np
402.68 381.42 m
81.65 0 l
o
np
424.94 291.17 m
0 94.55 l
o
np
462.06 291.17 m
0 94.55 l
o
/bg { 0.2000 0.2000 0.2000 srgb } def
0.2000 0.2000 0.2000 srgb
0.71 setlinewidth
[] 0 setdash
1 setlinecap
424.94 332.71 1.95 c p3
424.94 375.69 1.95 c p3
1.07 setlinewidth
[] 0 setdash
0 setlinecap
np
424.94 309.07 m
0 17.91 l
o
np
424.94 295.46 m
0 0 l
o
/bg { 0.6000 0.6000 0.6000 srgb } def
1 setlinecap
np
 411.03 309.07 m
0 -13.61 l
27.83 0 l
0 13.61 l
-27.83 0 l
cp p3
2.13 setlinewidth
[] 0 setdash
0 setlinecap
np
411.03 295.46 m
27.83 0 l
o
/bg { 0.2000 0.2000 0.2000 srgb } def
0.71 setlinewidth
[] 0 setdash
1 setlinecap
462.06 364.23 1.95 c p3
462.06 372.83 1.95 c p3
462.06 367.10 1.95 c p3
1.07 setlinewidth
[] 0 setdash
0 setlinecap
np
462.06 321.25 m
0 25.79 l
o
np
462.06 295.46 m
0 0 l
o
/bg { 0.9020 0.9020 0.9020 srgb } def
1 setlinecap
np
 448.14 321.25 m
0 -25.79 l
27.84 0 l
0 25.79 l
-27.84 0 l
cp p3
2.13 setlinewidth
[] 0 setdash
0 setlinecap
np
448.14 298.33 m
27.84 0 l
o
0.00 0.00 776.25 416.25 cl
402.68 191.13 484.33 285.69 cl
/bg { 0.9216 0.9216 0.9216 srgb } def
402.68 191.13 81.65 94.56 r p2
1 1 1 srgb
0.53 setlinewidth
[] 0 setdash
0 setlinecap
1 setlinejoin
10.00 setmiterlimit
np
402.68 209.75 m
81.65 0 l
o
np
402.68 238.41 m
81.65 0 l
o
np
402.68 267.06 m
81.65 0 l
o
1.07 setlinewidth
[] 0 setdash
np
402.68 195.43 m
81.65 0 l
o
np
402.68 224.08 m
81.65 0 l
o
np
402.68 252.73 m
81.65 0 l
o
np
402.68 281.39 m
81.65 0 l
o
np
424.94 191.13 m
0 94.56 l
o
np
462.06 191.13 m
0 94.56 l
o
/bg { 0.2000 0.2000 0.2000 srgb } def
0.2000 0.2000 0.2000 srgb
0.71 setlinewidth
[] 0 setdash
1 setlinecap
424.94 198.29 1.95 c p3
1.07 setlinewidth
[] 0 setdash
0 setlinecap
np
424.94 195.43 m
0 0 l
o
np
424.94 195.43 m
0 0 l
o
/bg { 0.6000 0.6000 0.6000 srgb } def
1 setlinecap
np
 411.03 195.43 m
0 0 l
27.83 0 l
0 0 l
-27.83 0 l
cp p3
2.13 setlinewidth
[] 0 setdash
0 setlinecap
np
411.03 195.43 m
27.83 0 l
o
/bg { 0.2000 0.2000 0.2000 srgb } def
0.71 setlinewidth
[] 0 setdash
1 setlinecap
462.06 215.49 1.95 c p3
462.06 201.16 1.95 c p3
462.06 198.29 1.95 c p3
462.06 201.16 1.95 c p3
462.06 198.29 1.95 c p3
462.06 224.08 1.95 c p3
462.06 226.95 1.95 c p3
462.06 201.16 1.95 c p3
462.06 209.75 1.95 c p3
462.06 264.20 1.95 c p3
1.07 setlinewidth
[] 0 setdash
0 setlinecap
np
462.06 196.14 m
0 0 l
o
np
462.06 195.43 m
0 0 l
o
/bg { 0.9020 0.9020 0.9020 srgb } def
1 setlinecap
np
 448.14 196.14 m
0 -0.71 l
27.84 0 l
0 0.71 l
-27.84 0 l
cp p3
2.13 setlinewidth
[] 0 setdash
0 setlinecap
np
448.14 195.43 m
27.84 0 l
o
0.00 0.00 776.25 416.25 cl
402.68 91.09 484.33 185.65 cl
/bg { 0.9216 0.9216 0.9216 srgb } def
402.68 91.09 81.65 94.56 r p2
1 1 1 srgb
0.53 setlinewidth
[] 0 setdash
0 setlinecap
1 setlinejoin
10.00 setmiterlimit
np
402.68 109.72 m
81.65 0 l
o
np
402.68 138.37 m
81.65 0 l
o
np
402.68 167.03 m
81.65 0 l
o
1.07 setlinewidth
[] 0 setdash
np
402.68 95.39 m
81.65 0 l
o
np
402.68 124.05 m
81.65 0 l
o
np
402.68 152.70 m
81.65 0 l
o
np
402.68 181.35 m
81.65 0 l
o
np
424.94 91.09 m
0 94.56 l
o
np
462.06 91.09 m
0 94.56 l
o
/bg { 0.2000 0.2000 0.2000 srgb } def
0.2000 0.2000 0.2000 srgb
0.71 setlinewidth
[] 0 setdash
1 setlinecap
424.94 98.26 1.95 c p3
424.94 101.12 1.95 c p3
1.07 setlinewidth
[] 0 setdash
0 setlinecap
np
424.94 95.39 m
0 0 l
o
np
424.94 95.39 m
0 0 l
o
/bg { 0.6000 0.6000 0.6000 srgb } def
1 setlinecap
np
 411.03 95.39 m
0 0 l
27.83 0 l
0 0 l
-27.83 0 l
cp p3
2.13 setlinewidth
[] 0 setdash
0 setlinecap
np
411.03 95.39 m
27.83 0 l
o
/bg { 0.2000 0.2000 0.2000 srgb } def
0.71 setlinewidth
[] 0 setdash
1 setlinecap
462.06 98.26 1.95 c p3
462.06 106.85 1.95 c p3
462.06 101.12 1.95 c p3
462.06 112.58 1.95 c p3
462.06 98.26 1.95 c p3
462.06 101.12 1.95 c p3
462.06 106.85 1.95 c p3
462.06 98.26 1.95 c p3
462.06 149.83 1.95 c p3
1.07 setlinewidth
[] 0 setdash
0 setlinecap
np
462.06 96.11 m
0 0 l
o
np
462.06 95.39 m
0 0 l
o
/bg { 0.9020 0.9020 0.9020 srgb } def
1 setlinecap
np
 448.14 96.11 m
0 -0.72 l
27.84 0 l
0 0.72 l
-27.84 0 l
cp p3
2.13 setlinewidth
[] 0 setdash
0 setlinecap
np
448.14 95.39 m
27.84 0 l
o
0.00 0.00 776.25 416.25 cl
489.81 291.17 571.46 385.72 cl
/bg { 0.9216 0.9216 0.9216 srgb } def
489.81 291.17 81.65 94.56 r p2
1 1 1 srgb
0.53 setlinewidth
[] 0 setdash
0 setlinecap
1 setlinejoin
10.00 setmiterlimit
np
489.81 309.79 m
81.65 0 l
o
np
489.81 338.44 m
81.65 0 l
o
np
489.81 367.10 m
81.65 0 l
o
1.07 setlinewidth
[] 0 setdash
np
489.81 295.46 m
81.65 0 l
o
np
489.81 324.12 m
81.65 0 l
o
np
489.81 352.77 m
81.65 0 l
o
np
489.81 381.42 m
81.65 0 l
o
np
512.08 291.17 m
0 94.55 l
o
np
549.19 291.17 m
0 94.55 l
o
/bg { 0.2000 0.2000 0.2000 srgb } def
0.2000 0.2000 0.2000 srgb
0.71 setlinewidth
[] 0 setdash
1 setlinecap
512.08 298.33 1.95 c p3
512.08 298.33 1.95 c p3
512.08 298.33 1.95 c p3
1.07 setlinewidth
[] 0 setdash
0 setlinecap
np
512.08 295.46 m
0 0 l
o
np
512.08 295.46 m
0 0 l
o
/bg { 0.6000 0.6000 0.6000 srgb } def
1 setlinecap
np
 498.16 295.46 m
0 0 l
27.83 0 l
0 0 l
-27.83 0 l
cp p3
2.13 setlinewidth
[] 0 setdash
0 setlinecap
np
498.16 295.46 m
27.83 0 l
o
/bg { 0.2000 0.2000 0.2000 srgb } def
0.71 setlinewidth
[] 0 setdash
1 setlinecap
549.19 312.66 1.95 c p3
549.19 306.92 1.95 c p3
549.19 306.92 1.95 c p3
549.19 321.25 1.95 c p3
549.19 361.37 1.95 c p3
1.07 setlinewidth
[] 0 setdash
0 setlinecap
np
549.19 298.33 m
0 2.86 l
o
np
549.19 295.46 m
0 0 l
o
/bg { 0.9020 0.9020 0.9020 srgb } def
1 setlinecap
np
 535.27 298.33 m
0 -2.87 l
27.84 0 l
0 2.87 l
-27.84 0 l
cp p3
2.13 setlinewidth
[] 0 setdash
0 setlinecap
np
535.27 295.46 m
27.84 0 l
o
0.00 0.00 776.25 416.25 cl
489.81 191.13 571.46 285.69 cl
/bg { 0.9216 0.9216 0.9216 srgb } def
489.81 191.13 81.65 94.56 r p2
1 1 1 srgb
0.53 setlinewidth
[] 0 setdash
0 setlinecap
1 setlinejoin
10.00 setmiterlimit
np
489.81 209.75 m
81.65 0 l
o
np
489.81 238.41 m
81.65 0 l
o
np
489.81 267.06 m
81.65 0 l
o
1.07 setlinewidth
[] 0 setdash
np
489.81 195.43 m
81.65 0 l
o
np
489.81 224.08 m
81.65 0 l
o
np
489.81 252.73 m
81.65 0 l
o
np
489.81 281.39 m
81.65 0 l
o
np
512.08 191.13 m
0 94.56 l
o
np
549.19 191.13 m
0 94.56 l
o
/bg { 0.2000 0.2000 0.2000 srgb } def
0.2000 0.2000 0.2000 srgb
0.71 setlinewidth
[] 0 setdash
1 setlinecap
512.08 218.35 1.95 c p3
512.08 198.29 1.95 c p3
1.07 setlinewidth
[] 0 setdash
0 setlinecap
np
512.08 195.43 m
0 0 l
o
np
512.08 195.43 m
0 0 l
o
/bg { 0.6000 0.6000 0.6000 srgb } def
1 setlinecap
np
 498.16 195.43 m
0 0 l
27.83 0 l
0 0 l
-27.83 0 l
cp p3
2.13 setlinewidth
[] 0 setdash
0 setlinecap
np
498.16 195.43 m
27.83 0 l
o
/bg { 0.2000 0.2000 0.2000 srgb } def
0.71 setlinewidth
[] 0 setdash
1 setlinecap
549.19 204.02 1.95 c p3
549.19 204.02 1.95 c p3
549.19 247.00 1.95 c p3
549.19 224.08 1.95 c p3
549.19 212.62 1.95 c p3
1.07 setlinewidth
[] 0 setdash
0 setlinecap
np
549.19 198.29 m
0 2.87 l
o
np
549.19 195.43 m
0 0 l
o
/bg { 0.9020 0.9020 0.9020 srgb } def
1 setlinecap
np
 535.27 198.29 m
0 -2.86 l
27.84 0 l
0 2.86 l
-27.84 0 l
cp p3
2.13 setlinewidth
[] 0 setdash
0 setlinecap
np
535.27 195.43 m
27.84 0 l
o
0.00 0.00 776.25 416.25 cl
489.81 91.09 571.46 185.65 cl
/bg { 0.9216 0.9216 0.9216 srgb } def
489.81 91.09 81.65 94.56 r p2
1 1 1 srgb
0.53 setlinewidth
[] 0 setdash
0 setlinecap
1 setlinejoin
10.00 setmiterlimit
np
489.81 109.72 m
81.65 0 l
o
np
489.81 138.37 m
81.65 0 l
o
np
489.81 167.03 m
81.65 0 l
o
1.07 setlinewidth
[] 0 setdash
np
489.81 95.39 m
81.65 0 l
o
np
489.81 124.05 m
81.65 0 l
o
np
489.81 152.70 m
81.65 0 l
o
np
489.81 181.35 m
81.65 0 l
o
np
512.08 91.09 m
0 94.56 l
o
np
549.19 91.09 m
0 94.56 l
o
/bg { 0.2000 0.2000 0.2000 srgb } def
0.2000 0.2000 0.2000 srgb
0.71 setlinewidth
[] 0 setdash
1 setlinecap
512.08 138.37 1.95 c p3
1.07 setlinewidth
[] 0 setdash
0 setlinecap
np
512.08 99.69 m
0 4.30 l
o
np
512.08 95.39 m
0 0 l
o
/bg { 0.6000 0.6000 0.6000 srgb } def
1 setlinecap
np
 498.16 99.69 m
0 -4.30 l
27.83 0 l
0 4.30 l
-27.83 0 l
cp p3
2.13 setlinewidth
[] 0 setdash
0 setlinecap
np
498.16 95.39 m
27.83 0 l
o
/bg { 0.2000 0.2000 0.2000 srgb } def
0.71 setlinewidth
[] 0 setdash
1 setlinecap
549.19 103.99 1.95 c p3
549.19 112.58 1.95 c p3
549.19 103.99 1.95 c p3
549.19 121.18 1.95 c p3
1.07 setlinewidth
[] 0 setdash
0 setlinecap
np
549.19 98.26 m
0 2.86 l
o
np
549.19 95.39 m
0 0 l
o
/bg { 0.9020 0.9020 0.9020 srgb } def
1 setlinecap
np
 535.27 98.26 m
0 -2.87 l
27.84 0 l
0 2.87 l
-27.84 0 l
cp p3
2.13 setlinewidth
[] 0 setdash
0 setlinecap
np
535.27 95.39 m
27.84 0 l
o
0.00 0.00 776.25 416.25 cl
576.94 291.17 658.59 385.72 cl
/bg { 0.9216 0.9216 0.9216 srgb } def
576.94 291.17 81.65 94.56 r p2
1 1 1 srgb
0.53 setlinewidth
[] 0 setdash
0 setlinecap
1 setlinejoin
10.00 setmiterlimit
np
576.94 309.79 m
81.65 0 l
o
np
576.94 338.44 m
81.65 0 l
o
np
576.94 367.10 m
81.65 0 l
o
1.07 setlinewidth
[] 0 setdash
np
576.94 295.46 m
81.65 0 l
o
np
576.94 324.12 m
81.65 0 l
o
np
576.94 352.77 m
81.65 0 l
o
np
576.94 381.42 m
81.65 0 l
o
np
599.21 291.17 m
0 94.55 l
o
np
636.32 291.17 m
0 94.55 l
o
/bg { 0.2000 0.2000 0.2000 srgb } def
0.2000 0.2000 0.2000 srgb
0.71 setlinewidth
[] 0 setdash
1 setlinecap
599.21 298.33 1.95 c p3
599.21 312.66 1.95 c p3
1.07 setlinewidth
[] 0 setdash
0 setlinecap
np
599.21 295.46 m
0 0 l
o
np
599.21 295.46 m
0 0 l
o
/bg { 0.6000 0.6000 0.6000 srgb } def
1 setlinecap
np
 585.29 295.46 m
0 0 l
27.83 0 l
0 0 l
-27.83 0 l
cp p3
2.13 setlinewidth
[] 0 setdash
0 setlinecap
np
585.29 295.46 m
27.83 0 l
o
/bg { 0.2000 0.2000 0.2000 srgb } def
0.71 setlinewidth
[] 0 setdash
1 setlinecap
636.32 312.66 1.95 c p3
636.32 318.39 1.95 c p3
636.32 298.33 1.95 c p3
636.32 315.52 1.95 c p3
636.32 335.58 1.95 c p3
636.32 312.66 1.95 c p3
1.07 setlinewidth
[] 0 setdash
0 setlinecap
np
636.32 295.46 m
0 0 l
o
np
636.32 295.46 m
0 0 l
o
/bg { 0.9020 0.9020 0.9020 srgb } def
1 setlinecap
np
 622.40 295.46 m
0 0 l
27.84 0 l
0 0 l
-27.84 0 l
cp p3
2.13 setlinewidth
[] 0 setdash
0 setlinecap
np
622.40 295.46 m
27.84 0 l
o
0.00 0.00 776.25 416.25 cl
576.94 191.13 658.59 285.69 cl
/bg { 0.9216 0.9216 0.9216 srgb } def
576.94 191.13 81.65 94.56 r p2
1 1 1 srgb
0.53 setlinewidth
[] 0 setdash
0 setlinecap
1 setlinejoin
10.00 setmiterlimit
np
576.94 209.75 m
81.65 0 l
o
np
576.94 238.41 m
81.65 0 l
o
np
576.94 267.06 m
81.65 0 l
o
1.07 setlinewidth
[] 0 setdash
np
576.94 195.43 m
81.65 0 l
o
np
576.94 224.08 m
81.65 0 l
o
np
576.94 252.73 m
81.65 0 l
o
np
576.94 281.39 m
81.65 0 l
o
np
599.21 191.13 m
0 94.56 l
o
np
636.32 191.13 m
0 94.56 l
o
/bg { 0.2000 0.2000 0.2000 srgb } def
0.2000 0.2000 0.2000 srgb
0.71 setlinewidth
[] 0 setdash
1 setlinecap
599.21 198.29 1.95 c p3
1.07 setlinewidth
[] 0 setdash
0 setlinecap
np
599.21 195.43 m
0 0 l
o
np
599.21 195.43 m
0 0 l
o
/bg { 0.6000 0.6000 0.6000 srgb } def
1 setlinecap
np
 585.29 195.43 m
0 0 l
27.83 0 l
0 0 l
-27.83 0 l
cp p3
2.13 setlinewidth
[] 0 setdash
0 setlinecap
np
585.29 195.43 m
27.83 0 l
o
/bg { 0.2000 0.2000 0.2000 srgb } def
0.71 setlinewidth
[] 0 setdash
1 setlinecap
636.32 212.62 1.95 c p3
636.32 215.49 1.95 c p3
636.32 204.02 1.95 c p3
636.32 226.95 1.95 c p3
1.07 setlinewidth
[] 0 setdash
0 setlinecap
np
636.32 198.29 m
0 2.87 l
o
np
636.32 195.43 m
0 0 l
o
/bg { 0.9020 0.9020 0.9020 srgb } def
1 setlinecap
np
 622.40 198.29 m
0 -2.86 l
27.84 0 l
0 2.86 l
-27.84 0 l
cp p3
2.13 setlinewidth
[] 0 setdash
0 setlinecap
np
622.40 195.43 m
27.84 0 l
o
0.00 0.00 776.25 416.25 cl
576.94 91.09 658.59 185.65 cl
/bg { 0.9216 0.9216 0.9216 srgb } def
576.94 91.09 81.65 94.56 r p2
1 1 1 srgb
0.53 setlinewidth
[] 0 setdash
0 setlinecap
1 setlinejoin
10.00 setmiterlimit
np
576.94 109.72 m
81.65 0 l
o
np
576.94 138.37 m
81.65 0 l
o
np
576.94 167.03 m
81.65 0 l
o
1.07 setlinewidth
[] 0 setdash
np
576.94 95.39 m
81.65 0 l
o
np
576.94 124.05 m
81.65 0 l
o
np
576.94 152.70 m
81.65 0 l
o
np
576.94 181.35 m
81.65 0 l
o
np
599.21 91.09 m
0 94.56 l
o
np
636.32 91.09 m
0 94.56 l
o
/bg { 0.2000 0.2000 0.2000 srgb } def
0.2000 0.2000 0.2000 srgb
0.71 setlinewidth
[] 0 setdash
1 setlinecap
599.21 101.12 1.95 c p3
1.07 setlinewidth
[] 0 setdash
0 setlinecap
np
599.21 95.39 m
0 0 l
o
np
599.21 95.39 m
0 0 l
o
/bg { 0.6000 0.6000 0.6000 srgb } def
1 setlinecap
np
 585.29 95.39 m
0 0 l
27.83 0 l
0 0 l
-27.83 0 l
cp p3
2.13 setlinewidth
[] 0 setdash
0 setlinecap
np
585.29 95.39 m
27.83 0 l
o
/bg { 0.2000 0.2000 0.2000 srgb } def
0.71 setlinewidth
[] 0 setdash
1 setlinecap
636.32 98.26 1.95 c p3
636.32 135.51 1.95 c p3
636.32 98.26 1.95 c p3
636.32 101.12 1.95 c p3
636.32 98.26 1.95 c p3
636.32 98.26 1.95 c p3
636.32 98.26 1.95 c p3
636.32 101.12 1.95 c p3
636.32 135.51 1.95 c p3
1.07 setlinewidth
[] 0 setdash
0 setlinecap
np
636.32 96.11 m
0 0 l
o
np
636.32 95.39 m
0 0 l
o
/bg { 0.9020 0.9020 0.9020 srgb } def
1 setlinecap
np
 622.40 96.11 m
0 -0.72 l
27.84 0 l
0 0.72 l
-27.84 0 l
cp p3
2.13 setlinewidth
[] 0 setdash
0 setlinecap
np
622.40 95.39 m
27.84 0 l
o
0.00 0.00 776.25 416.25 cl
664.07 291.17 745.72 385.72 cl
/bg { 0.9216 0.9216 0.9216 srgb } def
664.07 291.17 81.65 94.56 r p2
1 1 1 srgb
0.53 setlinewidth
[] 0 setdash
0 setlinecap
1 setlinejoin
10.00 setmiterlimit
np
664.07 309.79 m
81.65 0 l
o
np
664.07 338.44 m
81.65 0 l
o
np
664.07 367.10 m
81.65 0 l
o
1.07 setlinewidth
[] 0 setdash
np
664.07 295.46 m
81.65 0 l
o
np
664.07 324.12 m
81.65 0 l
o
np
664.07 352.77 m
81.65 0 l
o
np
664.07 381.42 m
81.65 0 l
o
np
686.34 291.17 m
0 94.55 l
o
np
723.45 291.17 m
0 94.55 l
o
0.2000 0.2000 0.2000 srgb
np
686.34 298.33 m
0 2.86 l
o
np
686.34 295.46 m
0 0 l
o
/bg { 0.6000 0.6000 0.6000 srgb } def
1 setlinecap
np
 672.42 298.33 m
0 -2.87 l
27.84 0 l
0 2.87 l
-27.84 0 l
cp p3
2.13 setlinewidth
[] 0 setdash
0 setlinecap
np
672.42 295.46 m
27.84 0 l
o
/bg { 0.2000 0.2000 0.2000 srgb } def
0.71 setlinewidth
[] 0 setdash
1 setlinecap
723.45 306.92 1.95 c p3
723.45 304.06 1.95 c p3
723.45 298.33 1.95 c p3
723.45 304.06 1.95 c p3
723.45 298.33 1.95 c p3
723.45 309.79 1.95 c p3
723.45 324.12 1.95 c p3
1.07 setlinewidth
[] 0 setdash
0 setlinecap
np
723.45 295.46 m
0 0 l
o
np
723.45 295.46 m
0 0 l
o
/bg { 0.9020 0.9020 0.9020 srgb } def
1 setlinecap
np
 709.53 295.46 m
0 0 l
27.84 0 l
0 0 l
-27.84 0 l
cp p3
2.13 setlinewidth
[] 0 setdash
0 setlinecap
np
709.53 295.46 m
27.84 0 l
o
0.00 0.00 776.25 416.25 cl
664.07 191.13 745.72 285.69 cl
/bg { 0.9216 0.9216 0.9216 srgb } def
664.07 191.13 81.65 94.56 r p2
1 1 1 srgb
0.53 setlinewidth
[] 0 setdash
0 setlinecap
1 setlinejoin
10.00 setmiterlimit
np
664.07 209.75 m
81.65 0 l
o
np
664.07 238.41 m
81.65 0 l
o
np
664.07 267.06 m
81.65 0 l
o
1.07 setlinewidth
[] 0 setdash
np
664.07 195.43 m
81.65 0 l
o
np
664.07 224.08 m
81.65 0 l
o
np
664.07 252.73 m
81.65 0 l
o
np
664.07 281.39 m
81.65 0 l
o
np
686.34 191.13 m
0 94.56 l
o
np
723.45 191.13 m
0 94.56 l
o
/bg { 0.2000 0.2000 0.2000 srgb } def
0.2000 0.2000 0.2000 srgb
0.71 setlinewidth
[] 0 setdash
1 setlinecap
686.34 201.16 1.95 c p3
686.34 198.29 1.95 c p3
1.07 setlinewidth
[] 0 setdash
0 setlinecap
np
686.34 195.43 m
0 0 l
o
np
686.34 195.43 m
0 0 l
o
/bg { 0.6000 0.6000 0.6000 srgb } def
1 setlinecap
np
 672.42 195.43 m
0 0 l
27.84 0 l
0 0 l
-27.84 0 l
cp p3
2.13 setlinewidth
[] 0 setdash
0 setlinecap
np
672.42 195.43 m
27.84 0 l
o
/bg { 0.2000 0.2000 0.2000 srgb } def
0.71 setlinewidth
[] 0 setdash
1 setlinecap
723.45 212.62 1.95 c p3
723.45 212.62 1.95 c p3
723.45 198.29 1.95 c p3
723.45 249.87 1.95 c p3
723.45 204.02 1.95 c p3
1.07 setlinewidth
[] 0 setdash
0 setlinecap
np
723.45 195.43 m
0 0 l
o
np
723.45 195.43 m
0 0 l
o
/bg { 0.9020 0.9020 0.9020 srgb } def
1 setlinecap
np
 709.53 195.43 m
0 0 l
27.84 0 l
0 0 l
-27.84 0 l
cp p3
2.13 setlinewidth
[] 0 setdash
0 setlinecap
np
709.53 195.43 m
27.84 0 l
o
0.00 0.00 776.25 416.25 cl
664.07 91.09 745.72 185.65 cl
/bg { 0.9216 0.9216 0.9216 srgb } def
664.07 91.09 81.65 94.56 r p2
1 1 1 srgb
0.53 setlinewidth
[] 0 setdash
0 setlinecap
1 setlinejoin
10.00 setmiterlimit
np
664.07 109.72 m
81.65 0 l
o
np
664.07 138.37 m
81.65 0 l
o
np
664.07 167.03 m
81.65 0 l
o
1.07 setlinewidth
[] 0 setdash
np
664.07 95.39 m
81.65 0 l
o
np
664.07 124.05 m
81.65 0 l
o
np
664.07 152.70 m
81.65 0 l
o
np
664.07 181.35 m
81.65 0 l
o
np
686.34 91.09 m
0 94.56 l
o
np
723.45 91.09 m
0 94.56 l
o
0.2000 0.2000 0.2000 srgb
np
686.34 95.39 m
0 0 l
o
np
686.34 95.39 m
0 0 l
o
/bg { 0.6000 0.6000 0.6000 srgb } def
1 setlinecap
np
 672.42 95.39 m
0 0 l
27.84 0 l
0 0 l
-27.84 0 l
cp p3
2.13 setlinewidth
[] 0 setdash
0 setlinecap
np
672.42 95.39 m
27.84 0 l
o
/bg { 0.2000 0.2000 0.2000 srgb } def
0.71 setlinewidth
[] 0 setdash
1 setlinecap
723.45 98.26 1.95 c p3
723.45 101.12 1.95 c p3
723.45 103.99 1.95 c p3
723.45 98.26 1.95 c p3
723.45 101.12 1.95 c p3
723.45 98.26 1.95 c p3
723.45 126.91 1.95 c p3
1.07 setlinewidth
[] 0 setdash
0 setlinecap
np
723.45 95.39 m
0 0 l
o
np
723.45 95.39 m
0 0 l
o
/bg { 0.9020 0.9020 0.9020 srgb } def
1 setlinecap
np
 709.53 95.39 m
0 0 l
27.84 0 l
0 0 l
-27.84 0 l
cp p3
2.13 setlinewidth
[] 0 setdash
0 setlinecap
np
709.53 95.39 m
27.84 0 l
o
0.00 0.00 776.25 416.25 cl
54.15 385.72 135.80 410.77 cl
54.15 385.72 135.80 410.77 cl
/bg { 0.8510 0.8510 0.8510 srgb } def
54.15 385.72 81.65 25.05 r p2
/Font1 findfont 19 s
0.1020 0.1020 0.1020 srgb
94.98 391.42 (1) .5 0 t
54.15 385.72 135.80 410.77 cl
54.15 385.72 135.80 410.77 cl
0.00 0.00 776.25 416.25 cl
141.28 385.72 222.93 410.77 cl
141.28 385.72 222.93 410.77 cl
/bg { 0.8510 0.8510 0.8510 srgb } def
141.28 385.72 81.65 25.05 r p2
/Font1 findfont 19 s
0.1020 0.1020 0.1020 srgb
182.11 391.42 (2) .5 0 t
141.28 385.72 222.93 410.77 cl
141.28 385.72 222.93 410.77 cl
0.00 0.00 776.25 416.25 cl
228.41 385.72 310.07 410.77 cl
228.41 385.72 310.07 410.77 cl
/bg { 0.8510 0.8510 0.8510 srgb } def
228.41 385.72 81.65 25.05 r p2
/Font1 findfont 19 s
0.1020 0.1020 0.1020 srgb
269.24 391.42 (4) .5 0 t
228.41 385.72 310.07 410.77 cl
228.41 385.72 310.07 410.77 cl
0.00 0.00 776.25 416.25 cl
315.54 385.72 397.20 410.77 cl
315.54 385.72 397.20 410.77 cl
/bg { 0.8510 0.8510 0.8510 srgb } def
315.54 385.72 81.65 25.05 r p2
/Font1 findfont 19 s
0.1020 0.1020 0.1020 srgb
356.37 391.42 (5) .5 0 t
315.54 385.72 397.20 410.77 cl
315.54 385.72 397.20 410.77 cl
0.00 0.00 776.25 416.25 cl
402.68 385.72 484.33 410.77 cl
402.68 385.72 484.33 410.77 cl
/bg { 0.8510 0.8510 0.8510 srgb } def
402.68 385.72 81.65 25.05 r p2
/Font1 findfont 19 s
0.1020 0.1020 0.1020 srgb
443.50 391.42 (6) .5 0 t
402.68 385.72 484.33 410.77 cl
402.68 385.72 484.33 410.77 cl
0.00 0.00 776.25 416.25 cl
489.81 385.72 571.46 410.77 cl
489.81 385.72 571.46 410.77 cl
/bg { 0.8510 0.8510 0.8510 srgb } def
489.81 385.72 81.65 25.05 r p2
/Font1 findfont 19 s
0.1020 0.1020 0.1020 srgb
530.63 391.42 (8) .5 0 t
489.81 385.72 571.46 410.77 cl
489.81 385.72 571.46 410.77 cl
0.00 0.00 776.25 416.25 cl
576.94 385.72 658.59 410.77 cl
576.94 385.72 658.59 410.77 cl
/bg { 0.8510 0.8510 0.8510 srgb } def
576.94 385.72 81.65 25.05 r p2
/Font1 findfont 19 s
0.1020 0.1020 0.1020 srgb
617.76 391.42 (9) .5 0 t
576.94 385.72 658.59 410.77 cl
576.94 385.72 658.59 410.77 cl
0.00 0.00 776.25 416.25 cl
664.07 385.72 745.72 410.77 cl
664.07 385.72 745.72 410.77 cl
/bg { 0.8510 0.8510 0.8510 srgb } def
664.07 385.72 81.65 25.05 r p2
/Font1 findfont 19 s
0.1020 0.1020 0.1020 srgb
704.90 391.42 (10) .5 0 t
664.07 385.72 745.72 410.77 cl
664.07 385.72 745.72 410.77 cl
0.00 0.00 776.25 416.25 cl
745.72 291.17 770.77 385.72 cl
745.72 291.17 770.77 385.72 cl
/bg { 0.8510 0.8510 0.8510 srgb } def
745.72 291.17 25.05 94.56 r p2
/Font1 findfont 19 s
0.1020 0.1020 0.1020 srgb
751.42 338.44 (base R) .5 -90.00 t
745.72 291.17 770.77 385.72 cl
745.72 291.17 770.77 385.72 cl
0.00 0.00 776.25 416.25 cl
745.72 191.13 770.77 285.69 cl
745.72 191.13 770.77 285.69 cl
/bg { 0.8510 0.8510 0.8510 srgb } def
745.72 191.13 25.05 94.56 r p2
/Font1 findfont 19 s
0.1020 0.1020 0.1020 srgb
751.42 238.41 (tilde) .5 -90.00 t
745.72 191.13 770.77 285.69 cl
745.72 191.13 770.77 285.69 cl
0.00 0.00 776.25 416.25 cl
745.72 91.09 770.77 185.65 cl
745.72 91.09 770.77 185.65 cl
/bg { 0.8510 0.8510 0.8510 srgb } def
745.72 91.09 25.05 94.56 r p2
/Font1 findfont 19 s
0.1020 0.1020 0.1020 srgb
751.42 176.38 (tidyv) -90.00 ta
-0.475 (erse) tb gr
745.72 91.09 770.77 185.65 cl
745.72 91.09 770.77 185.65 cl
0.00 0.00 776.25 416.25 cl
0.00 0.00 776.25 416.25 cl
0.00 0.00 776.25 416.25 cl
0.00 0.00 776.25 416.25 cl
0.00 0.00 776.25 416.25 cl
0.00 0.00 776.25 416.25 cl
0.00 0.00 776.25 416.25 cl
0.00 0.00 776.25 416.25 cl
0.00 0.00 776.25 416.25 cl
0.00 0.00 776.25 416.25 cl
0.00 0.00 776.25 416.25 cl
0.00 0.00 776.25 416.25 cl
0.00 0.00 776.25 416.25 cl
0.00 0.00 776.25 416.25 cl
0.00 0.00 776.25 416.25 cl
0.00 0.00 776.25 416.25 cl
0.00 0.00 776.25 416.25 cl
0.00 0.00 776.25 416.25 cl
0.00 0.00 776.25 416.25 cl
0.00 0.00 776.25 416.25 cl
0.00 0.00 776.25 416.25 cl
0.00 0.00 776.25 416.25 cl
0.2000 0.2000 0.2000 srgb
1.07 setlinewidth
[] 0 setdash
0 setlinecap
1 setlinejoin
10.00 setmiterlimit
np
76.42 88.35 m
0 2.74 l
o
np
113.53 88.35 m
0 2.74 l
o
0.00 0.00 776.25 416.25 cl
0.00 0.00 776.25 416.25 cl
/Font1 findfont 19 s
0.3020 0.3020 0.3020 srgb
76.42 72.52 (CS) .5 0 t
113.53 72.52 (Other) .5 0 t
0.00 0.00 776.25 416.25 cl
0.00 0.00 776.25 416.25 cl
0.00 0.00 776.25 416.25 cl
0.00 0.00 776.25 416.25 cl
0.00 0.00 776.25 416.25 cl
0.00 0.00 776.25 416.25 cl
0.00 0.00 776.25 416.25 cl
0.00 0.00 776.25 416.25 cl
0.2000 0.2000 0.2000 srgb
1.07 setlinewidth
[] 0 setdash
0 setlinecap
1 setlinejoin
10.00 setmiterlimit
np
163.55 88.35 m
0 2.74 l
o
np
200.67 88.35 m
0 2.74 l
o
0.00 0.00 776.25 416.25 cl
0.00 0.00 776.25 416.25 cl
/Font1 findfont 19 s
0.3020 0.3020 0.3020 srgb
163.55 72.52 (CS) .5 0 t
200.67 72.52 (Other) .5 0 t
0.00 0.00 776.25 416.25 cl
0.00 0.00 776.25 416.25 cl
0.00 0.00 776.25 416.25 cl
0.00 0.00 776.25 416.25 cl
0.00 0.00 776.25 416.25 cl
0.00 0.00 776.25 416.25 cl
0.00 0.00 776.25 416.25 cl
0.00 0.00 776.25 416.25 cl
0.2000 0.2000 0.2000 srgb
1.07 setlinewidth
[] 0 setdash
0 setlinecap
1 setlinejoin
10.00 setmiterlimit
np
250.68 88.35 m
0 2.74 l
o
np
287.80 88.35 m
0 2.74 l
o
0.00 0.00 776.25 416.25 cl
0.00 0.00 776.25 416.25 cl
/Font1 findfont 19 s
0.3020 0.3020 0.3020 srgb
250.68 72.52 (CS) .5 0 t
287.80 72.52 (Other) .5 0 t
0.00 0.00 776.25 416.25 cl
0.00 0.00 776.25 416.25 cl
0.00 0.00 776.25 416.25 cl
0.00 0.00 776.25 416.25 cl
0.00 0.00 776.25 416.25 cl
0.00 0.00 776.25 416.25 cl
0.00 0.00 776.25 416.25 cl
0.00 0.00 776.25 416.25 cl
0.2000 0.2000 0.2000 srgb
1.07 setlinewidth
[] 0 setdash
0 setlinecap
1 setlinejoin
10.00 setmiterlimit
np
337.81 88.35 m
0 2.74 l
o
np
374.93 88.35 m
0 2.74 l
o
0.00 0.00 776.25 416.25 cl
0.00 0.00 776.25 416.25 cl
/Font1 findfont 19 s
0.3020 0.3020 0.3020 srgb
337.81 72.52 (CS) .5 0 t
374.93 72.52 (Other) .5 0 t
0.00 0.00 776.25 416.25 cl
0.00 0.00 776.25 416.25 cl
0.00 0.00 776.25 416.25 cl
0.00 0.00 776.25 416.25 cl
0.00 0.00 776.25 416.25 cl
0.00 0.00 776.25 416.25 cl
0.00 0.00 776.25 416.25 cl
0.00 0.00 776.25 416.25 cl
0.2000 0.2000 0.2000 srgb
1.07 setlinewidth
[] 0 setdash
0 setlinecap
1 setlinejoin
10.00 setmiterlimit
np
424.94 88.35 m
0 2.74 l
o
np
462.06 88.35 m
0 2.74 l
o
0.00 0.00 776.25 416.25 cl
0.00 0.00 776.25 416.25 cl
/Font1 findfont 19 s
0.3020 0.3020 0.3020 srgb
424.94 72.52 (CS) .5 0 t
462.06 72.52 (Other) .5 0 t
0.00 0.00 776.25 416.25 cl
0.00 0.00 776.25 416.25 cl
0.00 0.00 776.25 416.25 cl
0.00 0.00 776.25 416.25 cl
0.00 0.00 776.25 416.25 cl
0.00 0.00 776.25 416.25 cl
0.00 0.00 776.25 416.25 cl
0.00 0.00 776.25 416.25 cl
0.2000 0.2000 0.2000 srgb
1.07 setlinewidth
[] 0 setdash
0 setlinecap
1 setlinejoin
10.00 setmiterlimit
np
512.08 88.35 m
0 2.74 l
o
np
549.19 88.35 m
0 2.74 l
o
0.00 0.00 776.25 416.25 cl
0.00 0.00 776.25 416.25 cl
/Font1 findfont 19 s
0.3020 0.3020 0.3020 srgb
512.08 72.52 (CS) .5 0 t
549.19 72.52 (Other) .5 0 t
0.00 0.00 776.25 416.25 cl
0.00 0.00 776.25 416.25 cl
0.00 0.00 776.25 416.25 cl
0.00 0.00 776.25 416.25 cl
0.00 0.00 776.25 416.25 cl
0.00 0.00 776.25 416.25 cl
0.00 0.00 776.25 416.25 cl
0.00 0.00 776.25 416.25 cl
0.2000 0.2000 0.2000 srgb
1.07 setlinewidth
[] 0 setdash
0 setlinecap
1 setlinejoin
10.00 setmiterlimit
np
599.21 88.35 m
0 2.74 l
o
np
636.32 88.35 m
0 2.74 l
o
0.00 0.00 776.25 416.25 cl
0.00 0.00 776.25 416.25 cl
/Font1 findfont 19 s
0.3020 0.3020 0.3020 srgb
599.21 72.52 (CS) .5 0 t
636.32 72.52 (Other) .5 0 t
0.00 0.00 776.25 416.25 cl
0.00 0.00 776.25 416.25 cl
0.00 0.00 776.25 416.25 cl
0.00 0.00 776.25 416.25 cl
0.00 0.00 776.25 416.25 cl
0.00 0.00 776.25 416.25 cl
0.00 0.00 776.25 416.25 cl
0.00 0.00 776.25 416.25 cl
0.2000 0.2000 0.2000 srgb
1.07 setlinewidth
[] 0 setdash
0 setlinecap
1 setlinejoin
10.00 setmiterlimit
np
686.34 88.35 m
0 2.74 l
o
np
723.45 88.35 m
0 2.74 l
o
0.00 0.00 776.25 416.25 cl
0.00 0.00 776.25 416.25 cl
/Font1 findfont 19 s
0.3020 0.3020 0.3020 srgb
686.34 72.52 (CS) .5 0 t
723.45 72.52 (Other) .5 0 t
0.00 0.00 776.25 416.25 cl
0.00 0.00 776.25 416.25 cl
0.00 0.00 776.25 416.25 cl
0.00 0.00 776.25 416.25 cl
0.00 0.00 776.25 416.25 cl
0.00 0.00 776.25 416.25 cl
0.00 0.00 776.25 416.25 cl
0.00 0.00 776.25 416.25 cl
/Font1 findfont 19 s
0.3020 0.3020 0.3020 srgb
49.22 288.64 (0) 1 0 t
49.22 317.30 (10) 1 0 t
49.22 345.95 (20) 1 0 t
49.22 374.60 (30) 1 0 t
0.00 0.00 776.25 416.25 cl
0.00 0.00 776.25 416.25 cl
0.2000 0.2000 0.2000 srgb
1.07 setlinewidth
[] 0 setdash
0 setlinecap
1 setlinejoin
10.00 setmiterlimit
np
51.41 295.46 m
2.74 0 l
o
np
51.41 324.12 m
2.74 0 l
o
np
51.41 352.77 m
2.74 0 l
o
np
51.41 381.42 m
2.74 0 l
o
0.00 0.00 776.25 416.25 cl
0.00 0.00 776.25 416.25 cl
0.00 0.00 776.25 416.25 cl
0.00 0.00 776.25 416.25 cl
0.00 0.00 776.25 416.25 cl
0.00 0.00 776.25 416.25 cl
0.00 0.00 776.25 416.25 cl
0.00 0.00 776.25 416.25 cl
/Font1 findfont 19 s
0.3020 0.3020 0.3020 srgb
49.22 188.61 (0) 1 0 t
49.22 217.26 (10) 1 0 t
49.22 245.91 (20) 1 0 t
49.22 274.57 (30) 1 0 t
0.00 0.00 776.25 416.25 cl
0.00 0.00 776.25 416.25 cl
0.2000 0.2000 0.2000 srgb
1.07 setlinewidth
[] 0 setdash
0 setlinecap
1 setlinejoin
10.00 setmiterlimit
np
51.41 195.43 m
2.74 0 l
o
np
51.41 224.08 m
2.74 0 l
o
np
51.41 252.73 m
2.74 0 l
o
np
51.41 281.39 m
2.74 0 l
o
0.00 0.00 776.25 416.25 cl
0.00 0.00 776.25 416.25 cl
0.00 0.00 776.25 416.25 cl
0.00 0.00 776.25 416.25 cl
0.00 0.00 776.25 416.25 cl
0.00 0.00 776.25 416.25 cl
0.00 0.00 776.25 416.25 cl
0.00 0.00 776.25 416.25 cl
/Font1 findfont 19 s
0.3020 0.3020 0.3020 srgb
49.22 88.57 (0) 1 0 t
49.22 117.22 (10) 1 0 t
49.22 145.88 (20) 1 0 t
49.22 174.53 (30) 1 0 t
0.00 0.00 776.25 416.25 cl
0.00 0.00 776.25 416.25 cl
0.2000 0.2000 0.2000 srgb
1.07 setlinewidth
[] 0 setdash
0 setlinecap
1 setlinejoin
10.00 setmiterlimit
np
51.41 95.39 m
2.74 0 l
o
np
51.41 124.05 m
2.74 0 l
o
np
51.41 152.70 m
2.74 0 l
o
np
51.41 181.35 m
2.74 0 l
o
0.00 0.00 776.25 416.25 cl
0.00 0.00 776.25 416.25 cl
0.00 0.00 776.25 416.25 cl
0.00 0.00 776.25 416.25 cl
0.00 0.00 776.25 416.25 cl
0.00 0.00 776.25 416.25 cl
0.00 0.00 776.25 416.25 cl
0.00 0.00 776.25 416.25 cl
0.00 0.00 776.25 416.25 cl
0.00 0.00 776.25 416.25 cl
0.00 0.00 776.25 416.25 cl
0.00 0.00 776.25 416.25 cl
/Font1 findfont 24 s
0 0 0 srgb
399.94 49.91 (Major) .5 0 t
0.00 0.00 776.25 416.25 cl
0.00 0.00 776.25 416.25 cl
/Font1 findfont 24 s
0 0 0 srgb
22.71 238.41 (Number of Errors) .5 90 t
0.00 0.00 776.25 416.25 cl
0.00 0.00 776.25 416.25 cl
0.00 0.00 776.25 416.25 cl
0.00 0.00 776.25 416.25 cl
0.00 0.00 776.25 416.25 cl
0.00 0.00 776.25 416.25 cl
0.00 0.00 776.25 416.25 cl
0.00 0.00 776.25 416.25 cl
/bg { 1 1 1 srgb } def
286.31 5.48 227.25 30.83 r p2
0.00 0.00 776.25 416.25 cl
0.00 0.00 776.25 416.25 cl
0.00 0.00 776.25 416.25 cl
0.00 0.00 776.25 416.25 cl
/Font1 findfont 24 s
0 0 0 srgb
291.79 12.28 (Major) 0 0 t
0.00 0.00 776.25 416.25 cl
0.00 0.00 776.25 416.25 cl
0.00 0.00 776.25 416.25 cl
/bg { 0.9490 0.9490 0.9490 srgb } def
1 1 1 srgb
1.07 setlinewidth
[] 0 setdash
1 setlinecap
1 setlinejoin
10.00 setmiterlimit
363.75 13.55 17.28 17.28 r p3
0.00 0.00 776.25 416.25 cl
0.00 0.00 776.25 416.25 cl
0.2000 0.2000 0.2000 srgb
1.07 setlinewidth
[] 0 setdash
1 setlinecap
1 setlinejoin
10.00 setmiterlimit
np
372.39 15.28 m
0 2.59 l
o
np
372.39 26.51 m
0 2.59 l
o
/bg { 0.6000 0.6000 0.6000 srgb } def
365.91 17.87 12.96 8.64 r p3
np
365.91 22.19 m
12.96 0 l
o
0.00 0.00 776.25 416.25 cl
0.00 0.00 776.25 416.25 cl
/bg { 0.9490 0.9490 0.9490 srgb } def
1 1 1 srgb
1.07 setlinewidth
[] 0 setdash
1 setlinecap
1 setlinejoin
10.00 setmiterlimit
431.33 13.55 17.28 17.28 r p3
0.00 0.00 776.25 416.25 cl
0.00 0.00 776.25 416.25 cl
0.2000 0.2000 0.2000 srgb
1.07 setlinewidth
[] 0 setdash
1 setlinecap
1 setlinejoin
10.00 setmiterlimit
np
439.97 15.28 m
0 2.59 l
o
np
439.97 26.51 m
0 2.59 l
o
/bg { 0.9020 0.9020 0.9020 srgb } def
433.49 17.87 12.96 8.64 r p3
np
433.49 22.19 m
12.96 0 l
o
0.00 0.00 776.25 416.25 cl
0.00 0.00 776.25 416.25 cl
0.00 0.00 776.25 416.25 cl
0.00 0.00 776.25 416.25 cl
/Font1 findfont 19 s
0 0 0 srgb
392.98 15.37 (CS) 0 0 t
0.00 0.00 776.25 416.25 cl
0.00 0.00 776.25 416.25 cl
0.00 0.00 776.25 416.25 cl
0.00 0.00 776.25 416.25 cl
0.00 0.00 776.25 416.25 cl
/Font1 findfont 19 s
0 0 0 srgb
460.56 15.37 (Other) 0 0 t
0.00 0.00 776.25 416.25 cl
0.00 0.00 776.25 416.25 cl
0.00 0.00 776.25 416.25 cl
0.00 0.00 776.25 416.25 cl
0.00 0.00 776.25 416.25 cl
0.00 0.00 776.25 416.25 cl
0.00 0.00 776.25 416.25 cl
0.00 0.00 776.25 416.25 cl
0.00 0.00 776.25 416.25 cl
0.00 0.00 776.25 416.25 cl
0.00 0.00 776.25 416.25 cl
0.00 0.00 776.25 416.25 cl
0.00 0.00 776.25 416.25 cl
ep
%%Trailer
%%Pages: 1
%%EOF
