%!PS-Adobe-3.0 EPSF-3.0
%%DocumentNeededResources: font Helvetica
%%+ font Helvetica-Bold
%%+ font Helvetica-Oblique
%%+ font Helvetica-BoldOblique
%%+ font Symbol
%%Title: R Graphics Output
%%Creator: R Software
%%Pages: (atend)
%%BoundingBox: 0 0 1152 432
%%EndComments
%%BeginProlog
/bp  { gs sRGB gs } def
% begin .ps.prolog
/gs  { gsave } bind def
/gr  { grestore } bind def
/ep  { showpage gr gr } bind def
/m   { moveto } bind def
/l  { rlineto } bind def
/np  { newpath } bind def
/cp  { closepath } bind def
/f   { fill } bind def
/o   { stroke } bind def
/c   { newpath 0 360 arc } bind def
/r   { 4 2 roll moveto 1 copy 3 -1 roll exch 0 exch rlineto 0 rlineto -1 mul 0 exch rlineto closepath } bind def
/p1  { stroke } bind def
/p2  { gsave bg fill grestore newpath } bind def
/p3  { gsave bg fill grestore stroke } bind def
/p6  { gsave bg eofill grestore newpath } bind def
/p7  { gsave bg eofill grestore stroke } bind def
/t   { 5 -2 roll moveto gsave rotate
       1 index stringwidth pop
       mul neg 0 rmoveto show grestore } bind def
/ta  { 4 -2 roll moveto gsave rotate show } bind def
/tb  { 2 -1 roll 0 rmoveto show } bind def
/cl  { grestore gsave newpath 3 index 3 index moveto 1 index
       4 -1 roll lineto  exch 1 index lineto lineto
       closepath clip newpath } bind def
/rgb { setrgbcolor } bind def
/s   { scalefont setfont } bind def
% end   .ps.prolog
/sRGB { [ /CIEBasedABC
          << /DecodeLMN
               [ { dup 0.03928 le
                        {12.92321 div}
                        {0.055 add 1.055 div 2.4 exp }
                     ifelse
                 } bind dup dup
               ]
             /MatrixLMN [0.412457 0.212673 0.019334
                         0.357576 0.715152 0.119192
                         0.180437 0.072175 0.950301]
             /WhitePoint [0.9505 1.0 1.0890]
           >>
         ] setcolorspace } bind def
/srgb { setcolor } bind def
%%IncludeResource: font Helvetica
/Helvetica findfont
dup length dict begin
  {1 index /FID ne {def} {pop pop} ifelse} forall
  /Encoding ISOLatin1Encoding def
  currentdict
  end
/Font1 exch definefont pop
%%IncludeResource: font Helvetica-Bold
/Helvetica-Bold findfont
dup length dict begin
  {1 index /FID ne {def} {pop pop} ifelse} forall
  /Encoding ISOLatin1Encoding def
  currentdict
  end
/Font2 exch definefont pop
%%IncludeResource: font Helvetica-Oblique
/Helvetica-Oblique findfont
dup length dict begin
  {1 index /FID ne {def} {pop pop} ifelse} forall
  /Encoding ISOLatin1Encoding def
  currentdict
  end
/Font3 exch definefont pop
%%IncludeResource: font Helvetica-BoldOblique
/Helvetica-BoldOblique findfont
dup length dict begin
  {1 index /FID ne {def} {pop pop} ifelse} forall
  /Encoding ISOLatin1Encoding def
  currentdict
  end
/Font4 exch definefont pop
%%IncludeResource: font Symbol
/Symbol findfont
dup length dict begin
  {1 index /FID ne {def} {pop pop} ifelse} forall
  currentdict
  end
/Font5 exch definefont pop
%%EndProlog
%%Page: 1 1
bp
0.00 0.00 1152.00 432.00 cl
0.00 0.00 1152.00 432.00 cl
0.00 0.00 1152.00 432.00 cl
0.00 0.00 1152.00 432.00 cl
0.00 0.00 1152.00 432.00 cl
0.00 0.00 1152.00 432.00 cl
0.00 0.00 1152.00 432.00 cl
0.00 0.00 1152.00 432.00 cl
0.00 0.00 1152.00 432.00 cl
0.00 0.00 1152.00 432.00 cl
/bg { 1 1 1 srgb } def
1 1 1 srgb
1.07 setlinewidth
[] 0 setdash
1 setlinecap
1 setlinejoin
10.00 setmiterlimit
0.00 0.00 1152.00 432.00 r p3
0.00 0.00 1152.00 432.00 cl
56.82 126.19 1146.52 426.52 cl
/bg { 0.9216 0.9216 0.9216 srgb } def
56.82 126.19 1089.70 300.33 r p2
1 1 1 srgb
0.53 setlinewidth
[] 0 setdash
0 setlinecap
1 setlinejoin
10.00 setmiterlimit
np
56.82 185.35 m
1089.70 0 l
o
np
56.82 276.35 m
1089.70 0 l
o
np
56.82 367.36 m
1089.70 0 l
o
1.07 setlinewidth
[] 0 setdash
np
56.82 139.84 m
1089.70 0 l
o
np
56.82 230.85 m
1089.70 0 l
o
np
56.82 321.86 m
1089.70 0 l
o
np
56.82 412.87 m
1089.70 0 l
o
np
182.55 126.19 m
0 300.33 l
o
np
392.11 126.19 m
0 300.33 l
o
np
601.67 126.19 m
0 300.33 l
o
np
811.23 126.19 m
0 300.33 l
o
np
1020.79 126.19 m
0 300.33 l
o
/bg { 0.9020 0.9020 0.9020 srgb } def
0 0 0 srgb
208.75 139.84 52.39 135.88 r p3
/bg { 0.7686 0.7686 0.7686 srgb } def
156.36 139.84 52.39 237.72 r p3
/bg { 0.6000 0.6000 0.6000 srgb } def
103.97 139.84 52.39 165.50 r p3
/bg { 0.9020 0.9020 0.9020 srgb } def
418.31 139.84 52.39 172.96 r p3
/bg { 0.7686 0.7686 0.7686 srgb } def
365.92 139.84 52.39 101.79 r p3
/bg { 0.6000 0.6000 0.6000 srgb } def
313.53 139.84 52.39 139.88 r p3
/bg { 0.9020 0.9020 0.9020 srgb } def
627.86 139.84 52.39 72.08 r p3
/bg { 0.7686 0.7686 0.7686 srgb } def
575.47 139.84 52.39 47.87 r p3
/bg { 0.6000 0.6000 0.6000 srgb } def
523.09 139.84 52.39 50.83 r p3
/bg { 0.7686 0.7686 0.7686 srgb } def
811.23 139.84 78.58 11.56 r p3
/bg { 0.6000 0.6000 0.6000 srgb } def
732.64 139.84 78.58 46.37 r p3
/bg { 0.9020 0.9020 0.9020 srgb } def
942.20 139.84 157.17 10.28 r p3
0.00 0.00 1152.00 432.00 cl
0.00 0.00 1152.00 432.00 cl
0.00 0.00 1152.00 432.00 cl
0.00 0.00 1152.00 432.00 cl
0.00 0.00 1152.00 432.00 cl
0.00 0.00 1152.00 432.00 cl
0.00 0.00 1152.00 432.00 cl
0.00 0.00 1152.00 432.00 cl
0.00 0.00 1152.00 432.00 cl
0.00 0.00 1152.00 432.00 cl
0.00 0.00 1152.00 432.00 cl
0.00 0.00 1152.00 432.00 cl
0.00 0.00 1152.00 432.00 cl
0.00 0.00 1152.00 432.00 cl
0.00 0.00 1152.00 432.00 cl
0.00 0.00 1152.00 432.00 cl
/Font1 findfont 19 s
0.3020 0.3020 0.3020 srgb
51.89 133.02 (0) 1 0 t
51.89 224.03 (20) 1 0 t
51.89 315.04 (40) 1 0 t
51.89 406.05 (60) 1 0 t
0.00 0.00 1152.00 432.00 cl
0.00 0.00 1152.00 432.00 cl
0.2000 0.2000 0.2000 srgb
1.07 setlinewidth
[] 0 setdash
0 setlinecap
1 setlinejoin
10.00 setmiterlimit
np
54.08 139.84 m
2.74 0 l
o
np
54.08 230.85 m
2.74 0 l
o
np
54.08 321.86 m
2.74 0 l
o
np
54.08 412.87 m
2.74 0 l
o
0.00 0.00 1152.00 432.00 cl
0.00 0.00 1152.00 432.00 cl
0.00 0.00 1152.00 432.00 cl
0.00 0.00 1152.00 432.00 cl
0.00 0.00 1152.00 432.00 cl
0.00 0.00 1152.00 432.00 cl
0.00 0.00 1152.00 432.00 cl
0.00 0.00 1152.00 432.00 cl
0.00 0.00 1152.00 432.00 cl
0.00 0.00 1152.00 432.00 cl
0.2000 0.2000 0.2000 srgb
1.07 setlinewidth
[] 0 setdash
0 setlinecap
1 setlinejoin
10.00 setmiterlimit
np
182.55 123.45 m
0 2.74 l
o
np
392.11 123.45 m
0 2.74 l
o
np
601.67 123.45 m
0 2.74 l
o
np
811.23 123.45 m
0 2.74 l
o
np
1020.79 123.45 m
0 2.74 l
o
0.00 0.00 1152.00 432.00 cl
0.00 0.00 1152.00 432.00 cl
/Font1 findfont 20 s
0.3020 0.3020 0.3020 srgb
26.32 79.13 (unkno) 10.00 ta
-0.300 (wn identifier) tb gr
244.60 80.67 (une) 10.00 ta
-0.600 (xpected input) tb gr
604.16 107.12 (function not defined) 1 10.00 t
813.72 107.12 (argument missing) 1 10.00 t
1023.28 107.12 (condition not correct type) 1 10.00 t
0.00 0.00 1152.00 432.00 cl
0.00 0.00 1152.00 432.00 cl
0.00 0.00 1152.00 432.00 cl
0.00 0.00 1152.00 432.00 cl
0.00 0.00 1152.00 432.00 cl
0.00 0.00 1152.00 432.00 cl
/Font1 findfont 24 s
0 0 0 srgb
601.67 45.60 (Error) .5 0 t
0.00 0.00 1152.00 432.00 cl
0.00 0.00 1152.00 432.00 cl
/Font1 findfont 24 s
0 0 0 srgb
22.71 276.35 (Frequency) .5 90 t
0.00 0.00 1152.00 432.00 cl
0.00 0.00 1152.00 432.00 cl
0.00 0.00 1152.00 432.00 cl
0.00 0.00 1152.00 432.00 cl
0.00 0.00 1152.00 432.00 cl
0.00 0.00 1152.00 432.00 cl
0.00 0.00 1152.00 432.00 cl
0.00 0.00 1152.00 432.00 cl
/bg { 1 1 1 srgb } def
443.88 5.48 315.58 28.62 r p2
0.00 0.00 1152.00 432.00 cl
0.00 0.00 1152.00 432.00 cl
/Font1 findfont 24 s
0 0 0 srgb
449.55 11.17 (Group) 0 0 t
0.00 0.00 1152.00 432.00 cl
0.00 0.00 1152.00 432.00 cl
/bg { 0.9490 0.9490 0.9490 srgb } def
1 1 1 srgb
1.07 setlinewidth
[] 0 setdash
1 setlinecap
1 setlinejoin
10.00 setmiterlimit
520.57 11.15 17.28 17.28 r p3
0.00 0.00 1152.00 432.00 cl
0.00 0.00 1152.00 432.00 cl
/bg { 0.6000 0.6000 0.6000 srgb } def
0 0 0 srgb
1.07 setlinewidth
[] 0 setdash
1 setlinecap
0 setlinejoin
10.00 setmiterlimit
521.28 11.86 15.86 15.86 r p3
0.00 0.00 1152.00 432.00 cl
0.00 0.00 1152.00 432.00 cl
/bg { 0.9490 0.9490 0.9490 srgb } def
1 1 1 srgb
1.07 setlinewidth
[] 0 setdash
1 setlinecap
1 setlinejoin
10.00 setmiterlimit
602.36 11.15 17.28 17.28 r p3
0.00 0.00 1152.00 432.00 cl
0.00 0.00 1152.00 432.00 cl
/bg { 0.7686 0.7686 0.7686 srgb } def
0 0 0 srgb
1.07 setlinewidth
[] 0 setdash
1 setlinecap
0 setlinejoin
10.00 setmiterlimit
603.07 11.86 15.86 15.86 r p3
0.00 0.00 1152.00 432.00 cl
0.00 0.00 1152.00 432.00 cl
/bg { 0.9490 0.9490 0.9490 srgb } def
1 1 1 srgb
1.07 setlinewidth
[] 0 setdash
1 setlinecap
1 setlinejoin
10.00 setmiterlimit
658.80 11.15 17.28 17.28 r p3
0.00 0.00 1152.00 432.00 cl
0.00 0.00 1152.00 432.00 cl
/bg { 0.9020 0.9020 0.9020 srgb } def
0 0 0 srgb
1.07 setlinewidth
[] 0 setdash
1 setlinecap
0 setlinejoin
10.00 setmiterlimit
659.51 11.86 15.86 15.86 r p3
0.00 0.00 1152.00 432.00 cl
0.00 0.00 1152.00 432.00 cl
/Font1 findfont 19 s
0 0 0 srgb
540.01 12.97 (base R) 0 0 t
0.00 0.00 1152.00 432.00 cl
0.00 0.00 1152.00 432.00 cl
/Font1 findfont 19 s
0 0 0 srgb
621.80 12.97 (tilde) 0 0 t
0.00 0.00 1152.00 432.00 cl
0.00 0.00 1152.00 432.00 cl
/Font1 findfont 19 s
0 0 0 srgb
678.24 12.97 (tidyv) 0 ta
-0.475 (erse) tb gr
0.00 0.00 1152.00 432.00 cl
0.00 0.00 1152.00 432.00 cl
0.00 0.00 1152.00 432.00 cl
0.00 0.00 1152.00 432.00 cl
0.00 0.00 1152.00 432.00 cl
0.00 0.00 1152.00 432.00 cl
0.00 0.00 1152.00 432.00 cl
0.00 0.00 1152.00 432.00 cl
0.00 0.00 1152.00 432.00 cl
0.00 0.00 1152.00 432.00 cl
ep
%%Trailer
%%Pages: 1
%%EOF
