%!PS-Adobe-3.0 EPSF-3.0
%%DocumentNeededResources: font Helvetica
%%+ font Helvetica-Bold
%%+ font Helvetica-Oblique
%%+ font Helvetica-BoldOblique
%%+ font Symbol
%%Title: R Graphics Output
%%Creator: R Software
%%Pages: (atend)
%%BoundingBox: 0 0 1152 432
%%EndComments
%%BeginProlog
/bp  { gs sRGB gs } def
% begin .ps.prolog
/gs  { gsave } bind def
/gr  { grestore } bind def
/ep  { showpage gr gr } bind def
/m   { moveto } bind def
/l  { rlineto } bind def
/np  { newpath } bind def
/cp  { closepath } bind def
/f   { fill } bind def
/o   { stroke } bind def
/c   { newpath 0 360 arc } bind def
/r   { 4 2 roll moveto 1 copy 3 -1 roll exch 0 exch rlineto 0 rlineto -1 mul 0 exch rlineto closepath } bind def
/p1  { stroke } bind def
/p2  { gsave bg fill grestore newpath } bind def
/p3  { gsave bg fill grestore stroke } bind def
/p6  { gsave bg eofill grestore newpath } bind def
/p7  { gsave bg eofill grestore stroke } bind def
/t   { 5 -2 roll moveto gsave rotate
       1 index stringwidth pop
       mul neg 0 rmoveto show grestore } bind def
/ta  { 4 -2 roll moveto gsave rotate show } bind def
/tb  { 2 -1 roll 0 rmoveto show } bind def
/cl  { grestore gsave newpath 3 index 3 index moveto 1 index
       4 -1 roll lineto  exch 1 index lineto lineto
       closepath clip newpath } bind def
/rgb { setrgbcolor } bind def
/s   { scalefont setfont } bind def
% end   .ps.prolog
/sRGB { [ /CIEBasedABC
          << /DecodeLMN
               [ { dup 0.03928 le
                        {12.92321 div}
                        {0.055 add 1.055 div 2.4 exp }
                     ifelse
                 } bind dup dup
               ]
             /MatrixLMN [0.412457 0.212673 0.019334
                         0.357576 0.715152 0.119192
                         0.180437 0.072175 0.950301]
             /WhitePoint [0.9505 1.0 1.0890]
           >>
         ] setcolorspace } bind def
/srgb { setcolor } bind def
%%IncludeResource: font Helvetica
/Helvetica findfont
dup length dict begin
  {1 index /FID ne {def} {pop pop} ifelse} forall
  /Encoding ISOLatin1Encoding def
  currentdict
  end
/Font1 exch definefont pop
%%IncludeResource: font Helvetica-Bold
/Helvetica-Bold findfont
dup length dict begin
  {1 index /FID ne {def} {pop pop} ifelse} forall
  /Encoding ISOLatin1Encoding def
  currentdict
  end
/Font2 exch definefont pop
%%IncludeResource: font Helvetica-Oblique
/Helvetica-Oblique findfont
dup length dict begin
  {1 index /FID ne {def} {pop pop} ifelse} forall
  /Encoding ISOLatin1Encoding def
  currentdict
  end
/Font3 exch definefont pop
%%IncludeResource: font Helvetica-BoldOblique
/Helvetica-BoldOblique findfont
dup length dict begin
  {1 index /FID ne {def} {pop pop} ifelse} forall
  /Encoding ISOLatin1Encoding def
  currentdict
  end
/Font4 exch definefont pop
%%IncludeResource: font Symbol
/Symbol findfont
dup length dict begin
  {1 index /FID ne {def} {pop pop} ifelse} forall
  currentdict
  end
/Font5 exch definefont pop
%%EndProlog
%%Page: 1 1
bp
0.00 0.00 1152.00 432.00 cl
0.00 0.00 1152.00 432.00 cl
0.00 0.00 1152.00 432.00 cl
0.00 0.00 1152.00 432.00 cl
0.00 0.00 1152.00 432.00 cl
0.00 0.00 1152.00 432.00 cl
0.00 0.00 1152.00 432.00 cl
0.00 0.00 1152.00 432.00 cl
0.00 0.00 1152.00 432.00 cl
0.00 0.00 1152.00 432.00 cl
0.00 0.00 1152.00 432.00 cl
0.00 0.00 1152.00 432.00 cl
0.00 0.00 1152.00 432.00 cl
0.00 0.00 1152.00 432.00 cl
0.00 0.00 1152.00 432.00 cl
0.00 0.00 1152.00 432.00 cl
0.00 0.00 1152.00 432.00 cl
/bg { 1 1 1 srgb } def
1 1 1 srgb
1.07 setlinewidth
[] 0 setdash
1 setlinecap
1 setlinejoin
10.00 setmiterlimit
0.00 0.00 1152.00 432.00 r p3
0.00 0.00 1152.00 432.00 cl
56.89 89.36 416.45 401.92 cl
/bg { 0.9216 0.9216 0.9216 srgb } def
56.89 89.36 359.56 312.56 r p2
1 1 1 srgb
0.53 setlinewidth
[] 0 setdash
0 setlinecap
1 setlinejoin
10.00 setmiterlimit
np
56.89 131.98 m
359.56 0 l
o
np
56.89 188.81 m
359.56 0 l
o
np
56.89 245.64 m
359.56 0 l
o
np
56.89 302.47 m
359.56 0 l
o
np
56.89 359.30 m
359.56 0 l
o
1.07 setlinewidth
[] 0 setdash
np
56.89 103.57 m
359.56 0 l
o
np
56.89 160.40 m
359.56 0 l
o
np
56.89 217.23 m
359.56 0 l
o
np
56.89 274.05 m
359.56 0 l
o
np
56.89 330.88 m
359.56 0 l
o
np
56.89 387.71 m
359.56 0 l
o
np
98.38 89.36 m
0 312.56 l
o
np
167.52 89.36 m
0 312.56 l
o
np
236.67 89.36 m
0 312.56 l
o
np
305.81 89.36 m
0 312.56 l
o
np
374.96 89.36 m
0 312.56 l
o
/bg { 0.9020 0.9020 0.9020 srgb } def
0 0 0 srgb
98.38 103.57 31.12 261.64 r p3
/bg { 0.6000 0.6000 0.6000 srgb } def
67.26 103.57 31.12 152.36 r p3
/bg { 0.9020 0.9020 0.9020 srgb } def
167.52 103.57 31.12 132.98 r p3
/bg { 0.6000 0.6000 0.6000 srgb } def
136.41 103.57 31.12 57.62 r p3
/bg { 0.9020 0.9020 0.9020 srgb } def
236.67 103.57 31.12 42.91 r p3
/bg { 0.6000 0.6000 0.6000 srgb } def
205.55 103.57 31.12 53.53 r p3
/bg { 0.9020 0.9020 0.9020 srgb } def
305.81 103.57 31.12 55.75 r p3
/bg { 0.6000 0.6000 0.6000 srgb } def
274.70 103.57 31.12 45.29 r p3
/bg { 0.9020 0.9020 0.9020 srgb } def
374.96 103.57 31.12 49.33 r p3
/bg { 0.6000 0.6000 0.6000 srgb } def
343.84 103.57 31.12 0.00 r p3
0.00 0.00 1152.00 432.00 cl
421.93 89.36 781.48 401.92 cl
/bg { 0.9216 0.9216 0.9216 srgb } def
421.93 89.36 359.56 312.56 r p2
1 1 1 srgb
0.53 setlinewidth
[] 0 setdash
0 setlinecap
1 setlinejoin
10.00 setmiterlimit
np
421.93 131.98 m
359.55 0 l
o
np
421.93 188.81 m
359.55 0 l
o
np
421.93 245.64 m
359.55 0 l
o
np
421.93 302.47 m
359.55 0 l
o
np
421.93 359.30 m
359.55 0 l
o
1.07 setlinewidth
[] 0 setdash
np
421.93 103.57 m
359.55 0 l
o
np
421.93 160.40 m
359.55 0 l
o
np
421.93 217.23 m
359.55 0 l
o
np
421.93 274.05 m
359.55 0 l
o
np
421.93 330.88 m
359.55 0 l
o
np
421.93 387.71 m
359.55 0 l
o
np
463.41 89.36 m
0 312.56 l
o
np
532.56 89.36 m
0 312.56 l
o
np
601.71 89.36 m
0 312.56 l
o
np
670.85 89.36 m
0 312.56 l
o
np
740.00 89.36 m
0 312.56 l
o
/bg { 0.9020 0.9020 0.9020 srgb } def
0 0 0 srgb
463.41 103.57 31.12 271.02 r p3
/bg { 0.6000 0.6000 0.6000 srgb } def
432.30 103.57 31.12 189.41 r p3
/bg { 0.9020 0.9020 0.9020 srgb } def
532.56 103.57 31.12 182.02 r p3
/bg { 0.6000 0.6000 0.6000 srgb } def
501.44 103.57 31.12 60.86 r p3
/bg { 0.9020 0.9020 0.9020 srgb } def
601.71 103.57 31.12 78.88 r p3
/bg { 0.6000 0.6000 0.6000 srgb } def
570.59 103.57 31.12 47.34 r p3
/bg { 0.9020 0.9020 0.9020 srgb } def
670.85 103.57 31.12 101.10 r p3
/bg { 0.6000 0.6000 0.6000 srgb } def
639.74 103.57 31.12 6.76 r p3
/bg { 0.9020 0.9020 0.9020 srgb } def
740.00 103.57 31.12 76.83 r p3
/bg { 0.6000 0.6000 0.6000 srgb } def
708.88 103.57 31.12 6.76 r p3
0.00 0.00 1152.00 432.00 cl
786.96 89.36 1146.52 401.92 cl
/bg { 0.9216 0.9216 0.9216 srgb } def
786.96 89.36 359.56 312.56 r p2
1 1 1 srgb
0.53 setlinewidth
[] 0 setdash
0 setlinecap
1 setlinejoin
10.00 setmiterlimit
np
786.96 131.98 m
359.56 0 l
o
np
786.96 188.81 m
359.56 0 l
o
np
786.96 245.64 m
359.56 0 l
o
np
786.96 302.47 m
359.56 0 l
o
np
786.96 359.30 m
359.56 0 l
o
1.07 setlinewidth
[] 0 setdash
np
786.96 103.57 m
359.56 0 l
o
np
786.96 160.40 m
359.56 0 l
o
np
786.96 217.23 m
359.56 0 l
o
np
786.96 274.05 m
359.56 0 l
o
np
786.96 330.88 m
359.56 0 l
o
np
786.96 387.71 m
359.56 0 l
o
np
828.45 89.36 m
0 312.56 l
o
np
897.60 89.36 m
0 312.56 l
o
np
966.74 89.36 m
0 312.56 l
o
np
1035.89 89.36 m
0 312.56 l
o
np
1105.03 89.36 m
0 312.56 l
o
/bg { 0.9020 0.9020 0.9020 srgb } def
0 0 0 srgb
828.45 103.57 31.12 278.86 r p3
/bg { 0.6000 0.6000 0.6000 srgb } def
797.34 103.57 31.12 113.66 r p3
/bg { 0.9020 0.9020 0.9020 srgb } def
897.60 103.57 31.12 198.56 r p3
/bg { 0.6000 0.6000 0.6000 srgb } def
866.48 103.57 31.12 68.19 r p3
/bg { 0.9020 0.9020 0.9020 srgb } def
966.74 103.57 31.12 90.87 r p3
/bg { 0.6000 0.6000 0.6000 srgb } def
935.63 103.57 31.12 60.64 r p3
/bg { 0.9020 0.9020 0.9020 srgb } def
1035.89 103.57 31.12 76.04 r p3
/bg { 0.6000 0.6000 0.6000 srgb } def
1004.77 103.57 31.12 45.46 r p3
/bg { 0.9020 0.9020 0.9020 srgb } def
1105.03 103.57 31.12 97.18 r p3
/bg { 0.6000 0.6000 0.6000 srgb } def
1073.92 103.57 31.12 30.29 r p3
0.00 0.00 1152.00 432.00 cl
56.89 401.92 416.45 426.52 cl
56.89 401.92 416.45 426.52 cl
/bg { 0.8510 0.8510 0.8510 srgb } def
56.89 401.92 359.56 24.60 r p2
/Font1 findfont 19 s
0.1020 0.1020 0.1020 srgb
236.67 407.40 (base R) .5 0 t
56.89 401.92 416.45 426.52 cl
56.89 401.92 416.45 426.52 cl
0.00 0.00 1152.00 432.00 cl
421.93 401.92 781.48 426.52 cl
421.93 401.92 781.48 426.52 cl
/bg { 0.8510 0.8510 0.8510 srgb } def
421.93 401.92 359.56 24.60 r p2
/Font1 findfont 19 s
0.1020 0.1020 0.1020 srgb
601.71 407.40 (tilde) .5 0 t
421.93 401.92 781.48 426.52 cl
421.93 401.92 781.48 426.52 cl
0.00 0.00 1152.00 432.00 cl
786.96 401.92 1146.52 426.52 cl
786.96 401.92 1146.52 426.52 cl
/bg { 0.8510 0.8510 0.8510 srgb } def
786.96 401.92 359.56 24.60 r p2
/Font1 findfont 19 s
0.1020 0.1020 0.1020 srgb
928.73 407.40 (tidyv) 0 ta
-0.475 (erse) tb gr
786.96 401.92 1146.52 426.52 cl
786.96 401.92 1146.52 426.52 cl
0.00 0.00 1152.00 432.00 cl
0.00 0.00 1152.00 432.00 cl
0.00 0.00 1152.00 432.00 cl
0.00 0.00 1152.00 432.00 cl
0.00 0.00 1152.00 432.00 cl
0.00 0.00 1152.00 432.00 cl
0.00 0.00 1152.00 432.00 cl
0.00 0.00 1152.00 432.00 cl
0.00 0.00 1152.00 432.00 cl
0.00 0.00 1152.00 432.00 cl
0.00 0.00 1152.00 432.00 cl
0.00 0.00 1152.00 432.00 cl
0.2000 0.2000 0.2000 srgb
1.07 setlinewidth
[] 0 setdash
0 setlinecap
1 setlinejoin
10.00 setmiterlimit
np
98.38 86.62 m
0 2.74 l
o
np
167.52 86.62 m
0 2.74 l
o
np
236.67 86.62 m
0 2.74 l
o
np
305.81 86.62 m
0 2.74 l
o
np
374.96 86.62 m
0 2.74 l
o
0.00 0.00 1152.00 432.00 cl
0.00 0.00 1152.00 432.00 cl
/Font1 findfont 19 s
0.3020 0.3020 0.3020 srgb
98.38 70.79 (IV) .5 0 t
167.52 70.79 (EC) .5 0 t
236.67 70.79 (EL) .5 0 t
305.81 70.79 (SP) .5 0 t
374.96 70.79 (RD) .5 0 t
0.00 0.00 1152.00 432.00 cl
0.00 0.00 1152.00 432.00 cl
0.00 0.00 1152.00 432.00 cl
0.00 0.00 1152.00 432.00 cl
0.00 0.00 1152.00 432.00 cl
0.00 0.00 1152.00 432.00 cl
0.00 0.00 1152.00 432.00 cl
0.00 0.00 1152.00 432.00 cl
0.2000 0.2000 0.2000 srgb
1.07 setlinewidth
[] 0 setdash
0 setlinecap
1 setlinejoin
10.00 setmiterlimit
np
463.41 86.62 m
0 2.74 l
o
np
532.56 86.62 m
0 2.74 l
o
np
601.71 86.62 m
0 2.74 l
o
np
670.85 86.62 m
0 2.74 l
o
np
740.00 86.62 m
0 2.74 l
o
0.00 0.00 1152.00 432.00 cl
0.00 0.00 1152.00 432.00 cl
/Font1 findfont 19 s
0.3020 0.3020 0.3020 srgb
463.41 70.79 (IV) .5 0 t
532.56 70.79 (EC) .5 0 t
601.71 70.79 (EL) .5 0 t
670.85 70.79 (SP) .5 0 t
740.00 70.79 (RD) .5 0 t
0.00 0.00 1152.00 432.00 cl
0.00 0.00 1152.00 432.00 cl
0.00 0.00 1152.00 432.00 cl
0.00 0.00 1152.00 432.00 cl
0.00 0.00 1152.00 432.00 cl
0.00 0.00 1152.00 432.00 cl
0.00 0.00 1152.00 432.00 cl
0.00 0.00 1152.00 432.00 cl
0.2000 0.2000 0.2000 srgb
1.07 setlinewidth
[] 0 setdash
0 setlinecap
1 setlinejoin
10.00 setmiterlimit
np
828.45 86.62 m
0 2.74 l
o
np
897.60 86.62 m
0 2.74 l
o
np
966.74 86.62 m
0 2.74 l
o
np
1035.89 86.62 m
0 2.74 l
o
np
1105.03 86.62 m
0 2.74 l
o
0.00 0.00 1152.00 432.00 cl
0.00 0.00 1152.00 432.00 cl
/Font1 findfont 19 s
0.3020 0.3020 0.3020 srgb
828.45 70.79 (IV) .5 0 t
897.60 70.79 (EC) .5 0 t
966.74 70.79 (EL) .5 0 t
1035.89 70.79 (SP) .5 0 t
1105.03 70.79 (RD) .5 0 t
0.00 0.00 1152.00 432.00 cl
0.00 0.00 1152.00 432.00 cl
0.00 0.00 1152.00 432.00 cl
0.00 0.00 1152.00 432.00 cl
0.00 0.00 1152.00 432.00 cl
0.00 0.00 1152.00 432.00 cl
0.00 0.00 1152.00 432.00 cl
0.00 0.00 1152.00 432.00 cl
/Font1 findfont 19 s
0.3020 0.3020 0.3020 srgb
51.96 96.75 (0) 1 0 t
51.96 153.58 (10) 1 0 t
51.96 210.41 (20) 1 0 t
51.96 267.23 (30) 1 0 t
51.96 324.06 (40) 1 0 t
51.96 380.89 (50) 1 0 t
0.00 0.00 1152.00 432.00 cl
0.00 0.00 1152.00 432.00 cl
0.2000 0.2000 0.2000 srgb
1.07 setlinewidth
[] 0 setdash
0 setlinecap
1 setlinejoin
10.00 setmiterlimit
np
54.15 103.57 m
2.74 0 l
o
np
54.15 160.40 m
2.74 0 l
o
np
54.15 217.23 m
2.74 0 l
o
np
54.15 274.05 m
2.74 0 l
o
np
54.15 330.88 m
2.74 0 l
o
np
54.15 387.71 m
2.74 0 l
o
0.00 0.00 1152.00 432.00 cl
0.00 0.00 1152.00 432.00 cl
0.00 0.00 1152.00 432.00 cl
0.00 0.00 1152.00 432.00 cl
0.00 0.00 1152.00 432.00 cl
0.00 0.00 1152.00 432.00 cl
0.00 0.00 1152.00 432.00 cl
0.00 0.00 1152.00 432.00 cl
/Font1 findfont 24 s
0 0 0 srgb
523.02 48.08 (Error Categor) 0 ta
0.720 (y) tb gr
0.00 0.00 1152.00 432.00 cl
0.00 0.00 1152.00 432.00 cl
/Font1 findfont 24 s
0 0 0 srgb
22.71 184.27 (P) 90 ta
-1.200 (ercentage) tb gr
0.00 0.00 1152.00 432.00 cl
0.00 0.00 1152.00 432.00 cl
0.00 0.00 1152.00 432.00 cl
0.00 0.00 1152.00 432.00 cl
0.00 0.00 1152.00 432.00 cl
0.00 0.00 1152.00 432.00 cl
0.00 0.00 1152.00 432.00 cl
0.00 0.00 1152.00 432.00 cl
/bg { 1 1 1 srgb } def
506.40 5.48 190.61 28.62 r p2
0.00 0.00 1152.00 432.00 cl
0.00 0.00 1152.00 432.00 cl
/Font1 findfont 24 s
0 0 0 srgb
512.07 11.17 (Major) 0 0 t
0.00 0.00 1152.00 432.00 cl
0.00 0.00 1152.00 432.00 cl
/bg { 0.9490 0.9490 0.9490 srgb } def
1 1 1 srgb
1.07 setlinewidth
[] 0 setdash
1 setlinecap
1 setlinejoin
10.00 setmiterlimit
576.39 11.15 17.28 17.28 r p3
0.00 0.00 1152.00 432.00 cl
0.00 0.00 1152.00 432.00 cl
/bg { 0.6000 0.6000 0.6000 srgb } def
0 0 0 srgb
1.07 setlinewidth
[] 0 setdash
1 setlinecap
0 setlinejoin
10.00 setmiterlimit
577.10 11.86 15.86 15.86 r p3
0.00 0.00 1152.00 432.00 cl
0.00 0.00 1152.00 432.00 cl
/bg { 0.9490 0.9490 0.9490 srgb } def
1 1 1 srgb
1.07 setlinewidth
[] 0 setdash
1 setlinecap
1 setlinejoin
10.00 setmiterlimit
624.38 11.15 17.28 17.28 r p3
0.00 0.00 1152.00 432.00 cl
0.00 0.00 1152.00 432.00 cl
/bg { 0.9020 0.9020 0.9020 srgb } def
0 0 0 srgb
1.07 setlinewidth
[] 0 setdash
1 setlinecap
0 setlinejoin
10.00 setmiterlimit
625.09 11.86 15.86 15.86 r p3
0.00 0.00 1152.00 432.00 cl
0.00 0.00 1152.00 432.00 cl
/Font1 findfont 19 s
0 0 0 srgb
595.83 12.97 (CS) 0 0 t
0.00 0.00 1152.00 432.00 cl
0.00 0.00 1152.00 432.00 cl
/Font1 findfont 19 s
0 0 0 srgb
643.82 12.97 (Other) 0 0 t
0.00 0.00 1152.00 432.00 cl
0.00 0.00 1152.00 432.00 cl
0.00 0.00 1152.00 432.00 cl
0.00 0.00 1152.00 432.00 cl
0.00 0.00 1152.00 432.00 cl
0.00 0.00 1152.00 432.00 cl
0.00 0.00 1152.00 432.00 cl
0.00 0.00 1152.00 432.00 cl
0.00 0.00 1152.00 432.00 cl
0.00 0.00 1152.00 432.00 cl
ep
%%Trailer
%%Pages: 1
%%EOF
